<svg width="18" height="18" viewBox="0 0 18 18" fill="none" xmlns="http://www.w3.org/2000/svg">
<path d="M2.22949 5.875L9.00033 12.125L15.7712 5.875" stroke="#9E9D9F" stroke-width="2" stroke-linecap="round" stroke-linejoin="round"/>
</svg>
