<svg width="1440" height="616" viewBox="0 0 1440 616" fill="none" xmlns="http://www.w3.org/2000/svg">
<path d="M1440 78.8165C1440 78.8165 1149.7 -37.7439 976.896 183.175C804.096 404.094 463.622 363.612 293.376 223.028C107.674 69.6725 0 150.505 0 150.505V526.507C0 526.507 248.966 296.809 563.462 482.616C999.302 740.111 1440 545.526 1440 545.526V78.8165Z" fill="url(#paint0_linear_404_5510)"/>
<path d="M0 30.7274C0 30.7274 290.304 -85.833 463.104 135.086C635.904 356.005 976.378 315.523 1146.62 174.939C1332.33 21.5834 1440 102.416 1440 102.416V478.418C1440 478.418 1191.03 248.72 876.538 434.526C440.698 692.021 0 497.437 0 497.437V30.7274Z" fill="url(#paint1_linear_404_5510)"/>
<defs>
<linearGradient id="paint0_linear_404_5510" x1="1151" y1="552.263" x2="323.477" y2="521.494" gradientUnits="userSpaceOnUse">
<stop stop-color="#FFF5E3" stop-opacity="0"/>
<stop offset="1" stop-color="#FFF0D6" stop-opacity="0.5"/>
</linearGradient>
<linearGradient id="paint1_linear_404_5510" x1="720" y1="-23.6629" x2="720" y2="567.911" gradientUnits="userSpaceOnUse">
<stop stop-color="#FFF5E3" stop-opacity="0.1"/>
<stop offset="1" stop-color="#FFF5E3"/>
</linearGradient>
</defs>
</svg>
