<svg width="375" height="578" viewBox="0 0 375 578" fill="none" xmlns="http://www.w3.org/2000/svg">
<g clip-path="url(#clip0_199_1841)">
<path d="M851 0H-590V578H851V0Z" fill="url(#paint0_linear_199_1841)"/>
<path d="M-785 -297.898C-785 -297.898 -410.024 -487.954 -186.824 -127.737C36.376 232.48 476.154 166.472 696.056 -62.755C935.922 -312.808 1075 -181.006 1075 -181.006V432.078C1075 432.078 753.418 57.5479 347.194 360.512C-215.766 780.367 -785 463.09 -785 463.09V-297.898Z" fill="url(#paint1_linear_199_1841)"/>
</g>
<defs>
<linearGradient id="paint0_linear_199_1841" x1="130.5" y1="0" x2="130.5" y2="578" gradientUnits="userSpaceOnUse">
<stop stop-color="#F0F7E8"/>
<stop offset="1" stop-color="#F2F9EC" stop-opacity="0"/>
</linearGradient>
<linearGradient id="paint1_linear_199_1841" x1="145" y1="-348" x2="145" y2="578" gradientUnits="userSpaceOnUse">
<stop stop-color="#E8F4D7"/>
<stop offset="1" stop-color="#DFF0C7" stop-opacity="0"/>
</linearGradient>
<clipPath id="clip0_199_1841">
<rect width="1440" height="578" fill="white" transform="translate(-589)"/>
</clipPath>
</defs>
</svg>
