<svg width="17" height="16" viewBox="0 0 17 16" fill="none" xmlns="http://www.w3.org/2000/svg">
<path d="M7.67924 14.5C7.32767 14.5005 6.98217 14.4083 6.67757 14.2327C6.37297 14.0572 6.12003 13.8044 5.94424 13.5C5.10269 12.0202 4.02132 10.6905 2.74424 9.56495C2.34908 9.22753 2.10076 8.74956 2.05185 8.23225C2.00295 7.71494 2.15729 7.1989 2.48221 6.7934C2.80713 6.38789 3.27712 6.12477 3.79265 6.05973C4.30818 5.9947 4.82879 6.13285 5.24424 6.44495C5.99322 7.06787 6.68589 7.75553 7.31424 8.49995C8.4802 6.27895 9.86543 4.18017 11.4492 2.23495C11.7847 1.82387 12.2698 1.5629 12.7977 1.50945C13.3256 1.456 13.8532 1.61446 14.2642 1.94996C14.6753 2.28545 14.9363 2.77051 14.9897 3.29843C15.0432 3.82634 14.8847 4.35387 14.5492 4.76495C12.4691 7.30268 10.7834 10.1396 9.54924 13.18C9.4212 13.5392 9.19314 13.8543 8.89194 14.0881C8.59074 14.322 8.22896 14.4649 7.84924 14.5H7.67924Z" fill="#663595"/>
</svg>
