<svg width="375" height="1569" viewBox="0 0 375 1569" fill="none" xmlns="http://www.w3.org/2000/svg">
<path d="M-618 84.8615C-618 84.8615 -243.024 -237.05 -19.824 373.075C203.376 983.2 643.154 871.398 863.056 483.14C1102.92 59.608 1242 282.849 1242 282.849V1321.27C1242 1321.27 920.418 686.906 514.194 1200.06C-48.7656 1911.2 -618 1373.8 -618 1373.8V84.8615Z" fill="url(#paint0_linear_267_1959)"/>
<defs>
<linearGradient id="paint0_linear_267_1959" x1="225.398" y1="6.32171e-06" x2="605.732" y2="1361.39" gradientUnits="userSpaceOnUse">
<stop stop-color="#DFF0C7" stop-opacity="0"/>
<stop offset="0.507749" stop-color="#F8FCF3"/>
<stop offset="1" stop-color="#DFF0C7" stop-opacity="0"/>
</linearGradient>
</defs>
</svg>
