<svg width="1440" height="507" viewBox="0 0 1440 507" fill="none" xmlns="http://www.w3.org/2000/svg">
<rect width="1440" height="507" fill="url(#paint0_linear_404_6429)"/>
<defs>
<linearGradient id="paint0_linear_404_6429" x1="812.064" y1="7.97019e-07" x2="820.094" y2="490.841" gradientUnits="userSpaceOnUse">
<stop stop-color="#F4EEF9" stop-opacity="0"/>
<stop offset="0.507749" stop-color="#F4EEF9"/>
<stop offset="1" stop-color="#F4EEF9" stop-opacity="0"/>
</linearGradient>
</defs>
</svg>
