<svg width="1440" height="1624" viewBox="0 0 1440 1624" fill="none" xmlns="http://www.w3.org/2000/svg">
<path d="M1440 38.7399C1440 38.7399 1149.7 -108.215 976.896 170.311C804.096 448.837 463.622 397.799 293.376 220.557C107.674 27.2115 0 129.123 0 129.123V603.171C0 603.171 248.966 313.577 563.462 547.834C999.302 872.474 1440 627.15 1440 627.15V38.7399Z" fill="url(#paint0_linear_404_5737)"/>
<path d="M1 797.102C1 797.102 291.102 607.046 463.782 967.263C636.462 1327.48 976.7 1261.47 1146.83 1032.25C1332.4 782.192 1440 913.994 1440 913.994V1527.08C1440 1527.08 1294.5 1206 877 1510C570.5 1733.18 1 1558.09 1 1558.09V797.102Z" fill="url(#paint1_linear_404_5737)"/>
<defs>
<linearGradient id="paint0_linear_404_5737" x1="720" y1="144.355" x2="720" y2="716" gradientUnits="userSpaceOnUse">
<stop stop-color="#FFF5E3" stop-opacity="0"/>
<stop offset="0.510417" stop-color="#FFF5E3"/>
<stop offset="1" stop-color="#FFF5E3" stop-opacity="0"/>
</linearGradient>
<linearGradient id="paint1_linear_404_5737" x1="720.5" y1="923.694" x2="720.5" y2="1623.4" gradientUnits="userSpaceOnUse">
<stop stop-color="#FFF5E3" stop-opacity="0"/>
<stop offset="0.510417" stop-color="#FFF5E3" stop-opacity="0.81"/>
<stop offset="1" stop-color="#FFF5E3" stop-opacity="0"/>
</linearGradient>
</defs>
</svg>
