<svg width="44" height="44" viewBox="0 0 44 44" fill="none" xmlns="http://www.w3.org/2000/svg">
<circle cx="22" cy="22" r="22" fill="#FFF4F5"/>
<path d="M27.6168 11.6646H26.6237C26.6237 11.2976 26.3262 11 25.9591 11H14.399C14.032 11 13.7344 11.2976 13.7344 11.6646V29.329C13.7344 29.6961 14.032 29.9936 14.399 29.9936C27.0002 29.9936 26.0181 30.0324 26.2351 29.9331C26.4033 29.8561 26.5336 29.7111 26.5912 29.5334H27.6167C27.6168 29.4058 27.6168 11.9137 27.6168 11.6646Z" fill="#60B7FF"/>
<path d="M27.3406 11H25.959C26.3261 11 26.6236 11.2976 26.6236 11.6646V29.329C26.6236 29.6961 26.3261 29.9936 25.959 29.9936H27.3406C27.7077 29.9936 28.0053 29.6961 28.0053 29.329V11.6646C28.0053 11.2976 27.7077 11 27.3406 11V11Z" fill="#60B7FF"/>
<path d="M28.0044 15.5523L24.9345 12.4824H15.6922C15.1848 12.4824 14.7734 12.8938 14.7734 13.4011V29.8278C14.7734 29.8843 14.7793 29.9393 14.789 29.9929H27.3397C27.7068 29.9929 28.0044 29.6954 28.0044 29.3283V15.5523Z" fill="#26A6FE"/>
<path d="M29.093 15.7234L27.5352 14.7508L26.1903 12.4824H16.948C16.4406 12.4824 16.0293 12.8938 16.0293 13.4011V29.8278C16.0293 30.3352 16.4406 30.7465 16.948 30.7465H29.0751C29.0811 30.7465 29.087 30.7458 29.093 30.7456V15.7234Z" fill="#EAF6FF"/>
<path d="M29.9937 16.2865L28.6121 15.4238V29.8285C28.6121 30.3358 28.2007 30.7472 27.6934 30.7472H29.075C29.5824 30.7472 29.9937 30.3358 29.9937 29.8285V16.2865H29.9937Z" fill="#D8ECFE"/>
<path d="M27.1101 16.2859H29.9949L26.1914 12.4824V15.3672C26.1914 15.8746 26.6027 16.2859 27.1101 16.2859Z" fill="#B3DAFE"/>
<path d="M27.7894 18.3678H18.2347C18.0511 18.3678 17.9023 18.219 17.9023 18.0354C17.9023 17.8519 18.0511 17.7031 18.2347 17.7031H27.7894C27.9729 17.7031 28.1217 17.8519 28.1217 18.0354C28.1217 18.219 27.9729 18.3678 27.7894 18.3678Z" fill="#82AEE3"/>
<path d="M27.7894 20.567H18.2347C18.0511 20.567 17.9023 20.4182 17.9023 20.2347C17.9023 20.0511 18.0511 19.9023 18.2347 19.9023H27.7894C27.9729 19.9023 28.1217 20.0511 28.1217 20.2347C28.1217 20.4182 27.9729 20.567 27.7894 20.567Z" fill="#82AEE3"/>
<path d="M31.4111 21.9997H30.6909C30.5366 21.7331 30.2484 21.5543 29.9234 21.5543C29.4675 21.5543 19.4081 21.5543 18.7668 21.5543L17.6002 19.6241H16.893C16.7688 19.458 16.5726 19.3574 16.3611 19.3574H12.4732C12.1062 19.3574 11.8086 19.655 11.8086 20.0221V32.1135C11.8086 32.6029 12.2054 32.9997 12.6948 32.9997H29.9234C30.0697 32.9997 30.2185 32.9618 30.3502 32.889H30.3519C30.4636 32.8272 30.5602 32.7417 30.6357 32.6397H31.4111V21.9997H31.4111Z" fill="#FBAC17"/>
<path d="M16.9502 19.7139L17.9132 21.5543H19.2949L18.3319 19.7139C18.2172 19.4947 17.9903 19.3574 17.743 19.3574H16.3613C16.6087 19.3574 16.8355 19.4947 16.9502 19.7139Z" fill="#FDCE74"/>
<path d="M31.3054 21.5547H29.9238C30.4133 21.5547 30.81 21.9515 30.81 22.4409V32.1139C30.81 32.6033 30.4132 33.0001 29.9238 33.0001H31.3054C31.7949 33.0001 32.1916 32.6033 32.1916 32.1139V22.4409C32.1916 21.9515 31.7949 21.5547 31.3054 21.5547Z" fill="#FDCE74"/>
</svg>
