<svg width="44" height="44" viewBox="0 0 44 44" fill="none" xmlns="http://www.w3.org/2000/svg">
<circle cx="22" cy="22" r="22" fill="#E2F8FD"/>
<path d="M14.0155 21.1873C15.1179 21.1873 16.0115 20.2937 16.0115 19.1913C16.0115 18.089 15.1179 17.1953 14.0155 17.1953C12.9132 17.1953 12.0195 18.089 12.0195 19.1913C12.0195 20.2937 12.9132 21.1873 14.0155 21.1873Z" fill="#663595"/>
<path d="M15.263 22.1855H12.7679C11.254 22.1855 10.0234 23.4161 10.0234 24.9301V25.4291C10.0234 25.8422 10.3588 26.1776 10.7719 26.1776H17.259C17.6721 26.1776 18.0075 25.8422 18.0075 25.4291V24.9301C18.0075 23.4161 16.7769 22.1855 15.263 22.1855Z" fill="#663595"/>
<path d="M29.9843 21.1873C31.0866 21.1873 31.9803 20.2937 31.9803 19.1913C31.9803 18.089 31.0866 17.1953 29.9843 17.1953C28.8819 17.1953 27.9883 18.089 27.9883 19.1913C27.9883 20.2937 28.8819 21.1873 29.9843 21.1873Z" fill="#92C83E"/>
<path d="M31.2317 22.1855H28.7367C27.2227 22.1855 25.9922 23.4161 25.9922 24.9301V25.4291C25.9922 25.8422 26.3275 26.1776 26.7407 26.1776H33.2277C33.6409 26.1776 33.9762 25.8422 33.9762 25.4291V24.9301C33.9762 23.4161 32.7457 22.1855 31.2317 22.1855Z" fill="#92C83E"/>
<path d="M21.9999 21.6872C23.6534 21.6872 24.9939 20.3468 24.9939 18.6932C24.9939 17.0397 23.6534 15.6992 21.9999 15.6992C20.3463 15.6992 19.0059 17.0397 19.0059 18.6932C19.0059 20.3468 20.3463 21.6872 21.9999 21.6872Z" fill="#EE202E"/>
<path d="M24.7433 23.1836H19.2543C17.7403 23.1836 16.5098 24.4141 16.5098 25.9281V27.4251C16.5098 27.8383 16.8451 28.1736 17.2583 28.1736H26.7393C27.1525 28.1736 27.4878 27.8383 27.4878 27.4251V25.9281C27.4878 24.4141 26.2573 23.1836 24.7433 23.1836Z" fill="#EE202E"/>
</svg>
