<svg width="179" height="160" viewBox="0 0 179 160" fill="none" xmlns="http://www.w3.org/2000/svg">
<path d="M15.5019 123.571C22.0444 168.883 60.3947 127.909 97.6555 141.814C134.916 155.72 176.868 128.144 170.326 82.8316C163.783 37.5194 132.195 58.7368 102.752 18.296C84.4663 -6.82 -1.54171 33.3551 15.5019 123.571Z" fill="url(#paint0_linear_2_3795)"/>
<g clip-path="url(#clip0_2_3795)">
<path d="M153.494 86.3853L149.017 98.5522C148.792 99.1723 148.054 99.4931 147.423 99.2721C146.771 99.044 146.46 98.3455 146.684 97.7254L149.879 89.0439L145.344 92.0946C144.997 92.3227 144.606 92.3654 144.229 92.2371L144.207 92.23L144.185 92.2229C143.809 92.0874 143.512 91.7952 143.396 91.4032L141.918 86.2071L138.724 94.8886C138.499 95.5087 137.782 95.8366 137.13 95.6085C136.5 95.3875 136.166 94.6819 136.391 94.0618L140.875 81.8878C141.1 81.2677 141.817 80.9398 142.447 81.1608C142.469 81.1679 142.469 81.1679 142.512 81.1822C142.845 81.3033 143.164 81.6027 143.258 81.9876L145.337 89.1651L151.603 84.9598C151.951 84.7317 152.342 84.689 152.719 84.8173C152.719 84.8173 152.719 84.8173 152.74 84.8244C153.356 85.0738 153.718 85.7652 153.494 86.3853Z" fill="#EE202E"/>
</g>
<path d="M73.3817 95.1907C72.4787 96.0643 70.9915 96.272 69.881 95.6786C68.7706 95.0869 68.1232 93.7419 68.3573 92.5106C66.8086 93.109 64.8865 92.3161 64.1296 90.8706C63.0706 91.4112 62.0548 92.0442 61.0987 92.7727C58.111 95.1891 55.1232 97.6055 52.2948 100.063C52.6683 100.633 53.0816 101.179 53.5331 101.693C55.744 104.241 58.7981 106.071 62.1129 106.79C61.7278 107.927 61.3012 109.046 60.8979 110.094C63.6881 109.396 66.4916 108.703 69.3233 108.026C70.7259 106.142 72.3509 104.395 74.3095 103.088C74.7677 102.781 75.249 102.494 75.7453 102.24L75.7022 102.158C75.9644 100.645 76.2283 99.1383 76.4923 97.6318C75.1395 97.3912 73.9145 96.4533 73.3817 95.1907Z" fill="#FFD24C"/>
<path d="M91.1861 97.9344C90.3197 96.3059 89.0681 94.8224 87.5859 93.6076C86.9651 93.7461 86.3045 93.7164 85.7069 93.4939C85.5376 94.4944 84.799 95.3812 83.8396 95.7323C82.8802 96.0833 81.7382 95.8839 80.9564 95.2312C80.8054 95.579 80.5995 95.902 80.3539 96.1905C84.0354 96.1476 87.7203 96.7509 91.1861 97.9344Z" fill="#FFD24C"/>
<path d="M83.8416 95.7324C84.801 95.3814 85.5396 94.4962 85.7089 93.4941C86.3065 93.7166 86.9654 93.7463 87.5879 93.6078C86.9472 93.082 86.2633 92.6057 85.5479 92.1903C82.8473 94.3776 79.2255 95.4209 75.7647 94.9742C72.2574 94.521 68.9825 92.5447 66.9392 89.6816C65.9765 90.0064 65.0387 90.4052 64.1307 90.87C64.8876 92.3156 66.8098 93.1084 68.3584 92.5101C68.1244 93.7397 68.7717 95.0847 69.8822 95.6781C70.9926 96.2698 72.4798 96.0621 73.3828 95.1902C73.9173 96.4544 75.1406 97.3906 76.4934 97.6329C76.5631 97.239 76.6312 96.8417 76.7009 96.4478C77.9126 96.2896 79.1342 96.2055 80.3542 96.1907C80.5999 95.9006 80.804 95.5792 80.9568 95.2314C81.7402 95.8841 82.8822 96.0819 83.8416 95.7324Z" fill="#FAD98A"/>
<path d="M72.7764 118.898C74.272 118.664 75.8057 118.682 77.2962 118.948C73.7026 121.578 70.0725 124.247 66.4391 126.919C63.4829 127.09 60.5366 127.398 57.6119 127.847C57.6451 125.315 58.095 122.803 58.6743 120.322C62.2745 119.625 66.2814 118.01 68.4658 117.052C69.3638 116.66 70.3447 116.538 71.3224 116.611C71.9498 116.657 72.5972 116.554 73.2113 116.35L73.2246 116.386C73.0752 117.224 72.9275 118.061 72.7764 118.898Z" fill="#FFD24C"/>
<path d="M80.804 90.4822C80.8156 90.4608 80.8223 90.4393 80.8273 90.4163C80.8787 90.169 80.9285 89.9218 80.9783 89.6745C77.9341 89.3597 74.9779 88.2241 72.5147 86.4192C72.5031 86.4522 72.4914 86.4851 72.4798 86.5197C72.2159 87.2631 71.9437 88.0312 71.7296 88.6691V88.6707C71.7146 88.6641 71.7014 88.6592 71.6914 88.6608C70.0747 88.8191 68.4779 89.1619 66.9392 89.6828C68.9825 92.5458 72.2574 94.5221 75.7647 94.9754C79.2238 95.4221 82.8457 94.3787 85.5479 92.1915C84.0607 91.3278 82.4423 90.7278 80.804 90.4822Z" fill="#FFC3A8"/>
<path d="M101.336 101.237C94.0629 95.6345 84.0921 92.9808 75.0143 94.4989C73.0026 101.13 71.6946 108.445 70.8663 115.322C71.7328 116.329 72.3984 117.505 72.8117 118.766C77.1058 116.332 82.087 115.109 87.0284 115.274C89.1514 115.345 91.3573 115.654 93.3408 114.896C95.6215 114.023 97.1436 111.918 98.5329 109.92L101.316 103.723L101.336 101.237Z" fill="white"/>
<path d="M120.05 96.9729L119.965 97.024C118.925 99.0398 117.834 101.118 116.055 102.539C114.79 103.549 113.251 104.163 111.704 104.655C108.841 105.567 105.649 106.098 102.886 104.923C102.197 104.629 101.514 104.196 101.209 103.517C100.872 102.767 101.07 101.961 101.285 101.141C106.001 97.174 112.138 94.906 118.317 94.8384C118.996 95.4598 119.582 96.1834 120.05 96.9729Z" fill="white"/>
<path d="M81.567 62.4795C81.7247 62.6114 81.8359 62.8158 81.8077 63.0185C81.7778 63.2212 81.6168 63.3877 81.4292 63.4718C81.2417 63.5575 81.0309 63.574 80.8234 63.5772C80.3337 63.5838 79.8076 63.4701 79.3262 63.5476C78.8316 63.6267 78.3402 63.7322 77.8489 63.8261C77.819 63.8327 77.7908 63.8377 77.7609 63.8443C77.4821 63.8954 77.1451 63.9283 76.9642 63.7108C76.8082 63.5212 76.8696 63.1685 77.0157 62.9855C77.1983 62.7531 77.6066 62.5965 77.8705 62.4828C78.3618 62.2718 78.8913 62.1499 79.4241 62.1268C79.9603 62.1037 80.4815 62.0922 81.0076 62.2273C81.2068 62.2784 81.4077 62.3493 81.567 62.4795Z" fill="#994F39"/>
<path d="M72.8464 85.4663C75.4075 86.4915 78.1231 87.1311 80.8784 87.1739C81.0826 87.1772 81.2868 87.1772 81.4909 87.1723C81.3947 87.6387 81.3 88.1052 81.2038 88.5717C81.1291 88.9392 81.0544 89.3068 80.978 89.6743C77.9339 89.3595 74.9776 88.2239 72.5144 86.419C72.6289 86.091 72.7418 85.7679 72.8464 85.4663Z" fill="#FFAC87"/>
<path d="M90.7287 69.5792C91.5752 69.6633 92.1927 70.4116 92.1097 71.2522C92.0251 72.0912 91.2715 72.706 90.4249 72.6219C89.5801 72.5395 88.9609 71.7912 89.0456 70.9506C89.1286 70.1099 89.8822 69.4968 90.7287 69.5792Z" fill="#331519"/>
<path d="M118.853 103.795C119.327 103.76 119.791 104.106 119.937 104.56C120.092 105.033 119.929 105.575 119.589 105.939C119.511 106.023 119.423 106.099 119.33 106.165C119.021 106.389 118.643 106.518 118.261 106.562C117.763 106.618 117.26 106.543 116.774 106.421C116.493 106.35 116.209 106.261 115.972 106.099C115.92 106.066 115.869 106.028 115.823 105.985C115.562 105.75 115.406 105.369 115.529 105.041C115.64 104.741 115.944 104.56 116.236 104.423C117.054 104.039 117.946 103.81 118.85 103.755L118.853 103.795Z" fill="#FFC3A8"/>
<path d="M116.647 112.786C116.259 112.794 115.868 112.706 115.505 112.566C115.234 112.462 114.967 112.324 114.775 112.11C114.582 111.894 114.473 111.586 114.554 111.309C114.685 110.859 115.231 110.865 115.629 110.806C115.854 110.87 116.084 110.908 116.315 110.935C116.803 110.989 117.304 110.992 117.776 110.852C117.907 110.813 118.038 110.76 118.161 110.696C118.406 111.066 118.398 111.584 118.174 111.973C117.927 112.402 117.455 112.675 116.966 112.758C116.859 112.774 116.755 112.784 116.647 112.786Z" fill="#FFC3A8"/>
<path d="M58.6732 120.322C57.6441 120.52 56.6482 120.644 55.7369 120.655C53.9094 120.678 51.9989 120.426 50.4934 119.396C48.3339 117.919 47.4442 115.064 47.753 112.478C48.0617 109.892 49.383 107.532 50.8934 105.402C51.5972 104.412 52.6297 102.961 53.5343 101.694C55.7452 104.242 58.7994 106.071 62.1141 106.79C61.729 107.927 61.3024 109.047 60.8991 110.095C63.6893 109.396 66.4928 108.704 69.3245 108.026C70.7271 106.142 72.3521 104.395 74.3108 103.088C74.7689 102.781 75.2502 102.495 75.7465 102.241C77.1707 101.507 78.7359 101.033 80.341 101.079C80.8357 101.094 81.3735 101.265 81.6224 101.692C81.8167 102.023 81.7884 102.453 81.6158 102.798C81.4797 103.065 81.2689 103.286 81.0266 103.464C81.4614 103.416 81.8996 103.386 82.3378 103.375C82.7495 103.363 83.1711 103.368 83.5545 103.517C83.938 103.663 84.2782 103.98 84.3463 104.382C84.4193 104.82 84.1504 105.259 83.7886 105.518C83.2591 105.897 82.5636 105.992 81.9478 106.154L81.9528 106.213C82.3445 106.179 82.7379 106.155 83.1313 106.146C83.3138 106.141 83.4981 106.159 83.6707 106.216C84.6799 106.549 84.4143 107.532 83.84 107.942C83.43 108.236 82.9105 108.316 82.4142 108.415C80.4672 108.801 78.5965 109.574 76.9018 110.784C78.5036 110.26 80.175 109.948 81.8598 109.859C82.1353 109.844 82.4175 109.915 82.635 110.085C83.2176 110.545 82.8408 111.26 82.3179 111.521C81.9013 111.728 81.4183 111.738 80.9568 111.811C79.6107 112.025 78.4256 112.798 77.3533 113.634C76.281 114.469 75.2602 115.396 74.0435 116.006C73.7763 116.139 73.4974 116.256 73.2103 116.35C72.5961 116.554 71.9488 116.657 71.3213 116.61C70.3437 116.538 69.3627 116.66 68.4647 117.052C66.2804 118.01 62.2734 119.625 58.6732 120.322Z" fill="#FFC3A8"/>
<path d="M93.2255 64.5773C93.3317 64.7866 93.3234 65.1443 93.1325 65.3009C92.9134 65.4789 92.5881 65.38 92.3242 65.2745C92.2976 65.2629 92.2694 65.2531 92.2428 65.2415C91.7797 65.0536 91.3183 64.8542 90.8486 64.6811C90.3921 64.5113 89.8527 64.5196 89.3746 64.4174C89.1721 64.3745 88.9679 64.3168 88.802 64.1965C88.6343 64.0778 88.5082 63.8833 88.5198 63.679C88.5314 63.4746 88.6808 63.2949 88.8617 63.1977C89.0443 63.0988 89.2551 63.0707 89.4609 63.0592C90.0037 63.0279 90.5116 63.1416 91.0328 63.2685C91.5507 63.3938 92.047 63.6163 92.4852 63.918C92.7225 64.0811 93.091 64.3152 93.2255 64.5773Z" fill="#994F39"/>
<path d="M115.631 110.805C115.419 110.746 115.213 110.664 115.025 110.548C114.642 110.311 114.335 109.915 114.3 109.465C114.277 109.147 114.413 108.895 114.607 108.656C114.793 108.427 115.015 108.366 115.311 108.331C115.616 108.536 115.98 108.646 116.34 108.733C116.972 108.887 117.635 108.987 118.27 108.859C118.473 108.818 118.674 108.75 118.86 108.658C119.135 109.032 119.137 109.572 118.916 109.986C118.75 110.294 118.478 110.535 118.162 110.695C118.04 110.759 117.908 110.812 117.777 110.851C117.306 110.992 116.805 110.988 116.317 110.934C116.086 110.908 115.855 110.87 115.631 110.805Z" fill="#FFC3A8"/>
<path d="M80.0874 68.5355C80.9339 68.6179 81.5514 69.3663 81.4684 70.2069C81.3854 71.0475 80.6302 71.6607 79.7853 71.5782C78.9388 71.4942 78.3213 70.7459 78.4043 69.9052C78.4873 69.0663 79.2409 68.4515 80.0874 68.5355Z" fill="#331519"/>
<path d="M83.418 114.333C82.9034 114.678 82.4237 115.075 81.9921 115.518C80.4352 116.652 78.8683 117.796 77.2947 118.948C73.7011 121.579 70.071 124.248 66.4376 126.919C63.4814 127.091 60.5351 127.399 57.6104 127.847C57.6071 128.167 57.6088 128.487 57.6187 128.807C57.6403 129.487 57.6968 130.172 57.7914 130.849C58.1897 133.694 59.262 136.451 61.2107 138.548C63.1959 140.684 66.0326 142.016 68.9539 142.184C70.2802 142.26 71.6164 142.095 72.8729 141.724C74.3883 141.279 75.7909 140.533 76.9246 139.547L86.4157 130.849L88.6084 128.841C84.5666 125.294 82.5399 119.618 83.418 114.333Z" fill="#FD868D"/>
<path d="M127.695 127.662C127.403 126.871 126.301 126.658 125.522 126.994C124.742 127.332 124.2 128.034 123.637 128.669C123.273 129.079 122.53 130.134 121.821 130.848C121.695 130.975 121.572 131.09 121.451 131.189C121.491 131.672 121.57 132.157 121.582 132.643C121.59 132.959 121.612 133.337 121.55 133.648C121.466 134.08 121.248 134.519 121.102 134.934C120.493 136.67 119.884 138.404 119.275 140.139C119.192 140.38 119.107 140.619 119.022 140.86L123.385 140.921C124.776 137.512 125.947 134.184 127.021 130.848C127.207 130.268 127.391 129.688 127.574 129.107C127.722 128.638 127.866 128.125 127.695 127.662Z" fill="#D44949"/>
<path d="M121.433 130.848H121.822C121.696 130.975 121.573 131.09 121.452 131.189C121.443 131.076 121.435 130.962 121.433 130.848Z" fill="#E88E8E"/>
<path d="M115.309 108.331C115.263 108.302 115.22 108.269 115.177 108.234C114.848 107.965 114.629 107.525 114.732 107.117C114.869 106.569 115.465 106.253 115.972 106.1C116.209 106.261 116.493 106.35 116.773 106.421C117.26 106.543 117.763 106.619 118.261 106.563C118.642 106.518 119.021 106.39 119.329 106.166C119.811 106.487 119.983 107.191 119.763 107.738C119.597 108.147 119.258 108.458 118.858 108.658C118.672 108.75 118.471 108.818 118.269 108.859C117.633 108.987 116.971 108.887 116.338 108.734C115.978 108.646 115.615 108.536 115.309 108.331Z" fill="#FFC3A8"/>
<path d="M111.933 140.759C112.01 140.908 112.033 141.074 112.023 141.242C111.975 141.987 111.316 142.553 110.566 142.564C106.16 142.635 101.754 142.48 97.3649 142.101C96.9234 141.73 96.5947 141.341 96.3972 140.924C96.3192 140.764 96.2611 140.599 96.2229 140.431C96.198 140.322 96.1897 140.215 96.1914 140.113C96.2063 139.516 96.0636 138.93 95.798 138.397C97.2221 138.481 98.648 138.565 100.074 138.648C100.927 138.699 101.78 138.748 102.635 138.798C103.377 138.842 103.986 138.831 104.625 138.414C105.092 138.109 105.463 137.774 105.955 137.576C106.466 138.534 106.829 138.521 108.058 139.149C109.005 139.632 110.154 139.718 111.369 140.303C111.665 140.411 111.839 140.573 111.933 140.759Z" fill="#D44949"/>
<path d="M96.2223 140.432C96.1974 140.323 96.1891 140.216 96.1908 140.113C96.2057 139.517 96.063 138.93 95.7974 138.398C95.7144 138.234 95.6198 138.075 95.5152 137.923L90.6468 130.848L89.0102 128.472L88.6085 128.841L86.4159 130.848L76.9248 139.546C75.7911 140.532 74.3885 141.279 72.873 141.724L72.878 141.739C81.2155 141.518 88.1073 141.152 96.3966 140.924C96.3186 140.764 96.2605 140.6 96.2223 140.432Z" fill="#FD868D"/>
<path d="M105.734 137.129C104.841 135.176 103.893 133.041 102.896 130.849C102.37 129.697 101.83 128.53 101.276 127.364C100.728 126.207 100.164 125.05 99.5861 123.915C98.2665 121.314 96.8739 118.813 95.4116 116.618C93.7716 114.154 90.9548 112.649 87.9853 112.804C87.8525 112.81 87.7214 112.82 87.5886 112.832C86.1014 112.977 84.6573 113.503 83.4191 114.333C82.541 119.618 84.5677 125.294 88.6094 128.841L89.0111 128.472L90.6477 130.849L95.5161 137.923C95.6207 138.075 95.7153 138.235 95.7983 138.398C97.2225 138.482 98.6483 138.566 100.074 138.649C100.927 138.7 101.78 138.749 102.635 138.799C103.377 138.843 103.986 138.832 104.625 138.415C105.092 138.11 105.464 137.775 105.955 137.577C105.885 137.447 105.812 137.299 105.734 137.129Z" fill="#FFC3A8"/>
<path d="M83.1316 106.146C82.7382 106.156 82.3449 106.179 81.9531 106.214L81.9481 106.155C82.564 105.993 83.2594 105.897 83.7889 105.518C84.1508 105.26 84.4197 104.821 84.3466 104.383C84.2786 103.98 83.9383 103.664 83.5549 103.517C83.1715 103.369 82.7499 103.364 82.3382 103.376C81.9 103.387 81.4618 103.417 81.0269 103.465C81.2693 103.287 81.4801 103.066 81.6162 102.799C81.7888 102.454 81.817 102.024 81.6228 101.693C81.3738 101.266 80.836 101.094 80.3414 101.08C78.7363 101.033 77.1711 101.508 75.7469 102.242L75.7038 102.159C76.0357 100.25 76.3677 98.3467 76.7013 96.4479C81.5697 95.8133 86.5725 96.3589 91.1869 97.9346C94.7341 99.1444 98.0505 100.962 100.902 103.321C106.204 98.9285 113.28 96.7149 120.115 97.1517C119.864 99.3686 119.486 101.571 118.943 103.75C118.912 103.751 118.882 103.753 118.85 103.756C117.946 103.811 117.054 104.04 116.236 104.424C115.944 104.561 115.64 104.742 115.529 105.042C115.406 105.37 115.562 105.751 115.823 105.986C115.869 106.029 115.921 106.067 115.972 106.1C115.466 106.253 114.87 106.57 114.732 107.117C114.629 107.526 114.848 107.966 115.177 108.235C115.22 108.269 115.263 108.302 115.31 108.332C115.014 108.367 114.792 108.428 114.606 108.657C114.412 108.896 114.276 109.148 114.299 109.466C114.334 109.916 114.641 110.312 115.024 110.549C115.212 110.664 115.418 110.747 115.63 110.806C115.232 110.865 114.686 110.859 114.554 111.309C114.473 111.586 114.583 111.894 114.775 112.11C114.968 112.324 115.235 112.462 115.506 112.566C115.869 112.706 116.259 112.794 116.648 112.786C115.843 115.911 115.039 119.036 114.023 122.258C109.177 121.535 104.139 122.116 99.5858 123.915C98.2662 121.314 96.8736 118.813 95.4113 116.618C93.7713 114.154 90.9546 112.649 87.9851 112.804C87.8523 112.81 87.7211 112.82 87.5884 112.832C86.1011 112.977 84.657 113.503 83.4188 114.333C82.9042 114.678 82.4245 115.075 81.993 115.518C80.436 116.652 78.8691 117.796 77.2956 118.948C75.805 118.683 74.2713 118.665 72.7758 118.899C72.9268 118.062 73.0745 117.224 73.2239 116.387L73.2106 116.351C73.4978 116.257 73.7767 116.14 74.0439 116.006C75.2606 115.396 76.2814 114.47 77.3537 113.634C78.4259 112.799 79.6111 112.026 80.9572 111.811C81.4187 111.739 81.9017 111.729 82.3183 111.521C82.8412 111.261 83.2179 110.546 82.6353 110.086C82.4179 109.916 82.1357 109.845 81.8602 109.86C80.1754 109.949 78.5039 110.26 76.9022 110.785C78.5969 109.575 80.4676 108.802 82.4146 108.416C82.9109 108.317 83.4304 108.236 83.8404 107.943C84.4147 107.533 84.6803 106.55 83.6711 106.217C83.4985 106.16 83.3142 106.141 83.1316 106.146Z" fill="#94D2C7"/>
<path d="M101.278 127.364C101.832 128.529 102.371 129.696 102.898 130.848C103.352 131.849 103.797 132.836 104.23 133.801C104.614 131.981 105.032 130.169 105.484 128.365C103.87 127.987 102.421 127.641 101.278 127.364Z" fill="#FD868D"/>
<path d="M121.582 132.644C121.57 132.158 121.49 131.673 121.45 131.19C121.2 131.396 120.964 131.533 120.763 131.551C119.605 131.368 118.275 131.127 116.854 130.849C113.206 130.135 108.958 129.178 105.481 128.365C105.029 130.168 104.611 131.981 104.228 133.801C104.746 134.95 105.247 136.067 105.733 137.129C105.811 137.299 105.884 137.447 105.954 137.577C106.465 138.535 106.829 138.522 108.057 139.15C109.005 139.633 110.153 139.718 111.368 140.303C111.664 140.412 111.838 140.574 111.933 140.76L119.022 140.861C119.107 140.62 119.191 140.381 119.274 140.14C119.883 138.405 120.493 136.671 121.102 134.935C121.248 134.52 121.465 134.081 121.55 133.649C121.611 133.338 121.59 132.96 121.582 132.644Z" fill="#FFC3A8"/>
<path d="M92.3156 82.8257C91.9122 83.2394 91.4823 83.6267 91.0292 83.9828C88.3468 86.081 84.9109 87.1112 81.4916 87.1722C81.3954 87.6386 81.3007 88.1051 81.2045 88.5716C81.9049 88.8023 82.6452 88.9144 83.3839 88.8946C84.8661 88.8551 86.3268 88.2848 87.4406 87.3156C89.7229 89.104 92.6343 89.7155 95.1324 88.8534C95.8876 88.593 96.593 88.1925 97.2138 87.6881C95.4029 86.2557 93.7547 84.6223 92.3156 82.8257Z" fill="#E33434"/>
<path d="M95.945 72.4763L95.8719 74.7048C95.7973 77.7129 94.4362 80.6468 92.3165 82.8258C93.7556 84.6241 95.4039 86.2575 97.2131 87.6882C98.6406 86.5295 99.6199 84.8202 99.7344 82.994C99.9685 79.2672 96.9276 75.9838 95.945 72.4763Z" fill="#E33434"/>
<path d="M105.348 52.6724C104.823 49.8209 102.733 47.3221 100.039 46.2063C97.3438 45.0904 94.1303 45.3574 91.2754 46.7963C87.6635 45.3755 84.0185 43.9448 80.1875 43.3037C76.3566 42.6641 72.275 42.8652 68.8009 44.5926C66.8323 45.5733 65.1127 47.0815 63.9342 48.9325C63.5291 49.5671 63.1905 50.2412 62.9316 50.9467C62.7507 51.4379 62.7042 51.9736 62.4652 52.4433C62.2046 52.9543 61.7863 53.1257 61.3232 53.4158C60.3422 54.0273 59.5156 54.8663 58.85 55.8042C58.5562 56.2212 58.2923 56.658 58.0616 57.1112C56.9528 59.2853 56.5096 61.7215 56.0133 64.1082C55.5187 66.4932 54.9344 68.9228 53.5965 70.9633C52.4678 72.6841 50.8096 74.128 50.2403 76.1026C49.6262 78.2355 50.564 80.7145 52.4413 81.9177C54.2522 83.0798 56.7951 82.9562 58.3554 81.6754C58.4101 81.6293 58.4682 81.5864 58.5213 81.5386C58.9645 83.2001 60.3173 84.5929 61.9722 85.0956C63.6287 85.5967 65.5326 85.1896 67.0414 84.0226C67.8747 85.244 70.9105 86.4324 72.4791 86.5197C72.4907 86.4851 72.5024 86.4521 72.514 86.4192C72.6285 86.0912 72.7414 85.7681 72.8459 85.4665C72.0426 85.1451 71.2541 84.7841 70.484 84.3934C67.0431 82.6446 63.7931 80.07 62.2925 76.5707C62.1166 76.6284 61.9324 76.6647 61.7465 76.6861C60.9315 76.7735 60.0434 76.5262 59.3496 76.0664C57.9454 75.1367 57.1022 73.3797 57.3976 71.7298C57.6947 70.0798 59.1952 68.6821 60.8817 68.6228C62.5482 68.5651 64.1748 69.9332 64.286 71.5798L64.3441 71.5748C69.6109 70.1062 73.7373 65.2372 74.3348 59.6166C76.0711 60.0649 77.8421 60.4671 79.6348 60.421C81.4274 60.3765 83.2666 59.8408 84.5745 58.6244C84.7322 58.4777 84.8799 58.3211 85.016 58.1562C85.1156 58.0376 85.2418 57.7722 85.4111 57.7392C85.7082 57.6799 85.4128 58.2255 85.3729 58.3211C85.2468 58.6244 85.099 58.9194 84.9314 59.2029C84.1081 60.6056 85.7912 61.7132 86.9929 61.9539C87.7034 62.0973 88.437 62.0528 89.1574 61.9786C90.56 61.8319 91.9692 61.5698 93.2456 60.9764C94.0258 60.6122 94.7561 60.1144 95.3454 59.4946L95.3686 59.5177C95.3122 59.8358 95.2341 60.1507 95.1362 60.4589C94.854 61.3424 95.3985 62.2522 96.2749 62.417C96.3579 62.4319 96.4425 62.4418 96.5288 62.4434C98.0808 62.478 100.282 62.1335 102.514 60.4737C104.851 58.7348 105.872 55.5256 105.348 52.6724Z" fill="#E33434"/>
<path d="M95.137 60.459C95.235 60.1508 95.313 59.836 95.3694 59.5178L95.3462 59.4948C94.7569 60.1145 94.0266 60.6123 93.2464 60.9766C91.97 61.5699 90.5608 61.832 89.1582 61.9787C88.4378 62.0529 87.7042 62.0974 86.9938 61.954C85.792 61.7133 84.1089 60.6057 84.9322 59.203C85.0998 58.9195 85.2476 58.6245 85.3737 58.3212C85.4136 58.2256 85.709 57.68 85.4119 57.7394C85.2426 57.7723 85.1164 58.0377 85.0169 58.1564C84.8807 58.3212 84.733 58.4778 84.5753 58.6245C83.2674 59.8409 81.4282 60.3766 79.6356 60.4211C77.8429 60.4673 76.0719 60.0651 74.3356 59.6167C73.7381 65.2374 69.6117 70.1064 64.3449 71.575L64.2868 71.5799C64.1756 69.9333 62.549 68.5652 60.8825 68.6229C59.1961 68.6822 57.6955 70.08 57.3984 71.7299C57.103 73.3798 57.9462 75.1369 59.3504 76.0665C60.2036 76.6319 61.3489 76.8758 62.2934 76.5709C62.9191 78.0313 63.8503 79.3284 64.9724 80.474C66.5393 82.0745 68.4797 83.375 70.4848 84.3936C71.2549 84.7842 72.0434 85.1452 72.8468 85.4666C73.5157 85.7336 74.1946 85.9743 74.8817 86.1869C76.8288 86.7852 78.8422 87.1429 80.8772 87.1742C81.0813 87.1775 81.2855 87.1775 81.4897 87.1726C82.952 87.1462 84.416 86.9418 85.8235 86.5528C87.7092 86.0336 89.4918 85.1831 91.0272 83.9832C93.4423 82.0942 95.1852 79.3021 95.708 76.3088C95.801 75.7797 95.8557 75.244 95.869 74.705L95.9421 72.4766L96.274 62.4172C95.3993 62.2523 94.8549 61.3425 95.137 60.459ZM81.4697 70.2069C81.3867 71.0475 80.6315 71.6607 79.7866 71.5783C78.9401 71.4942 78.3226 70.7459 78.4056 69.9053C78.4886 69.0663 79.2422 68.4515 80.0887 68.5356C80.9353 68.618 81.5527 69.3663 81.4697 70.2069ZM81.8067 63.0188C81.7768 63.2215 81.6158 63.388 81.4282 63.4721C81.2407 63.5578 81.0299 63.5742 80.8224 63.5775C80.3327 63.5841 79.8066 63.4704 79.3252 63.5479C78.8306 63.627 78.3392 63.7325 77.8479 63.8264C77.818 63.833 77.7898 63.838 77.7599 63.8446C77.4811 63.8957 77.1441 63.9286 76.9632 63.7111C76.8072 63.5215 76.8686 63.1688 77.0147 62.9858C77.1972 62.7534 77.6056 62.5968 77.8695 62.4831C78.3608 62.2721 78.8903 62.1501 79.4231 62.1271C79.9593 62.104 80.4805 62.0925 81.0066 62.2276C81.2058 62.2787 81.4067 62.3496 81.566 62.4798C81.7237 62.6117 81.8349 62.816 81.8067 63.0188ZM88.8594 63.1968C89.042 63.0979 89.2528 63.0699 89.4586 63.0583C90.0014 63.027 90.5093 63.1408 91.0305 63.2677C91.5484 63.3929 92.0447 63.6155 92.4829 63.9171C92.7203 64.0803 93.0888 64.3143 93.2232 64.5764C93.3294 64.7857 93.3211 65.1434 93.1303 65.3C92.9112 65.478 92.5858 65.3791 92.3219 65.2736C92.2953 65.2621 92.2671 65.2522 92.2406 65.2407C91.7775 65.0528 91.316 64.8533 90.8463 64.6802C90.3898 64.5105 89.8504 64.5187 89.3723 64.4165C89.1698 64.3737 88.9657 64.316 88.7997 64.1956C88.632 64.077 88.5059 63.8825 88.5175 63.6781C88.5291 63.4737 88.6785 63.294 88.8594 63.1968ZM89.0437 70.9503C89.1267 70.1097 89.8802 69.4965 90.7268 69.5789C91.5733 69.663 92.1908 70.4113 92.1078 71.2519C92.0231 72.0909 91.2696 72.7057 90.423 72.6216C89.5782 72.5392 88.959 71.7909 89.0437 70.9503Z" fill="#FFC3A8"/>
<path d="M62.2373 73.2762C62.0697 73.2762 61.9252 73.1493 61.907 72.9796C61.8539 72.4669 61.5269 71.9741 61.0721 71.7252C60.6173 71.4763 60.0247 71.4648 59.5583 71.6939C59.394 71.7747 59.1948 71.7087 59.1134 71.5456C59.0321 71.3824 59.0985 71.1846 59.2628 71.1038C59.9268 70.7742 60.7434 70.7923 61.3924 71.1483C62.0414 71.5044 62.4929 72.1801 62.5676 72.9136C62.5859 73.0949 62.4531 73.2565 62.2705 73.2746C62.2605 73.2746 62.2489 73.2762 62.2373 73.2762Z" fill="#F06B58"/>
<path d="M85.8298 76.5986C85.6472 76.5986 85.4978 76.4519 85.4978 76.2706C85.4978 76.0893 85.6455 75.941 85.8281 75.9393C86.5087 75.9377 87.1211 75.6789 87.4647 75.2503C87.8316 74.7905 87.8498 74.1064 87.5029 73.7257C87.3502 73.5576 87.1294 73.4356 86.8971 73.3087C86.7676 73.2378 86.6315 73.1636 86.502 73.0763C86.0788 72.7944 85.6439 72.2554 85.8082 71.662C85.8563 71.4857 86.0389 71.3818 86.2165 71.4313C86.3925 71.4791 86.497 71.6604 86.4489 71.8367C86.3825 72.0757 86.6215 72.3625 86.8722 72.529C86.9801 72.5999 87.0962 72.6642 87.2207 72.7334C87.4913 72.8818 87.7702 73.035 87.9976 73.2856C88.5602 73.9053 88.5553 74.9487 87.9859 75.6608C87.5162 76.2442 86.7112 76.5953 85.8298 76.5986Z" fill="#F06B58"/>
<path d="M83.7727 80.9488C83.1538 81.175 82.4714 81.2225 81.8293 81.071C80.8858 80.8489 80.0596 80.2032 79.6208 79.3457C79.5384 79.1828 79.604 78.9851 79.766 78.9013C79.9286 78.8191 80.1286 78.8829 80.2121 79.0437C80.5645 79.7326 81.2273 80.2503 81.9834 80.4286C82.7395 80.6069 83.5694 80.4405 84.199 79.9824C84.3467 79.874 84.5548 79.9068 84.6615 80.0538C84.7683 80.2008 84.736 80.4074 84.5877 80.5142C84.3396 80.6961 84.0627 80.8429 83.7727 80.9488Z" fill="#B85244"/>
<path d="M75.5777 105.375C75.4548 105.375 75.3386 105.307 75.2806 105.192C75.1992 105.028 75.2656 104.831 75.4299 104.75C77.0367 103.959 78.7563 103.435 80.5423 103.191C80.7249 103.166 80.8909 103.293 80.9158 103.472C80.9407 103.652 80.8145 103.819 80.6319 103.843C78.9173 104.077 77.2657 104.582 75.7237 105.34C75.6789 105.365 75.6275 105.375 75.5777 105.375Z" fill="#F06B58"/>
<path d="M76.6864 107.83C76.5553 107.83 76.4325 107.753 76.3793 107.626C76.3096 107.458 76.3893 107.265 76.5586 107.195C78.4044 106.437 80.3514 105.986 82.3465 105.852C82.5308 105.836 82.6885 105.977 82.7001 106.159C82.7117 106.34 82.5739 106.498 82.3914 106.51C80.4692 106.638 78.5919 107.075 76.8126 107.805C76.7727 107.822 76.7296 107.83 76.6864 107.83Z" fill="#F06B58"/>
<path d="M73.1302 141.976C72.9891 141.976 72.8597 141.887 72.8149 141.747C72.7584 141.574 72.8547 141.387 73.029 141.331C74.415 140.888 75.6881 140.184 76.7089 139.296L89.2624 127.792C89.3969 127.669 89.6077 127.677 89.7322 127.811C89.8567 127.944 89.8484 128.153 89.7139 128.277L77.1537 139.785C76.0582 140.738 74.7054 141.488 73.2331 141.958C73.1983 141.971 73.1634 141.976 73.1302 141.976Z" fill="#69676A"/>
<path d="M62.2639 106.668C62.2291 106.668 62.1942 106.663 62.161 106.651C61.9867 106.595 61.8921 106.409 61.9486 106.236C62.4515 104.708 62.7885 103.403 62.9793 102.246C63.4524 99.3759 63.1652 96.7502 62.1494 94.6552C62.0697 94.4904 62.1394 94.2943 62.3038 94.2151C62.4698 94.136 62.6673 94.2052 62.747 94.3684C63.8242 96.587 64.1296 99.3478 63.635 102.353C63.4391 103.543 63.0939 104.881 62.5793 106.442C62.5345 106.58 62.405 106.668 62.2639 106.668Z" fill="#69676A"/>
<path d="M97.2178 120.47C97.1946 120.47 97.1713 120.468 97.1481 120.463C96.9688 120.425 96.8543 120.25 96.8925 120.071L100.514 103.286C100.552 103.108 100.728 102.995 100.908 103.032C101.087 103.07 101.201 103.245 101.163 103.425L97.5415 120.209C97.5099 120.362 97.3722 120.47 97.2178 120.47Z" fill="#5C9E93"/>
<path d="M20.9857 113.195L18.6036 114.689L18.9235 116.262C18.9697 116.532 18.8496 116.788 18.6347 116.925C18.5614 116.966 18.5054 116.994 18.4316 117.013C18.084 117.088 17.7504 116.856 17.663 116.513L16.2006 109.39C16.1544 109.12 16.2828 108.846 16.5024 108.722C16.7215 108.577 17.01 108.583 17.2369 108.743L23.0248 113.147C23.297 113.372 23.3596 113.768 23.1485 114.057C23.1149 114.106 23.0463 114.16 22.982 114.205C22.767 114.342 22.4832 114.349 22.2734 114.176L20.9857 113.195ZM19.9031 112.375L17.7868 110.769L18.3253 113.372L19.9031 112.375Z" fill="#66DAF8"/>
<path d="M51.6008 22.1486C51.6204 19.0919 54.179 16.6113 57.2553 16.6016C58.6127 16.6016 59.8432 17.0508 60.8198 17.8028C61.1909 18.1153 61.2495 18.6524 60.9761 19.0333C60.6635 19.4141 60.0971 19.4825 59.7456 19.1993C59.0717 18.6426 58.2221 18.3496 57.265 18.3496C56.2005 18.3496 55.2142 18.7793 54.4915 19.463C53.7981 20.1759 53.3684 21.0939 53.3684 22.1486C53.3684 23.1935 53.7981 24.1506 54.4915 24.8342C55.2142 25.508 56.2005 25.9475 57.265 25.9475C58.2221 25.9475 59.0522 25.6545 59.7456 25.0979C60.0971 24.8342 60.6733 24.8928 60.9761 25.2639C61.2495 25.6447 61.1909 26.2014 60.8198 26.4944C59.853 27.2463 58.6127 27.6956 57.2553 27.6956C54.179 27.6956 51.6204 25.215 51.6008 22.1486Z" fill="#4E4C50"/>
<path d="M17.4616 74.8103L13.5331 71.1581C13.3269 70.9672 13.322 70.6511 13.5082 70.4521C13.5149 70.4455 13.5149 70.4455 13.5262 70.4316C13.5262 70.4316 13.5262 70.4316 13.5328 70.4249L14.3875 69.5063C15.038 68.8073 16.1299 68.7676 16.8289 69.4181C17.1141 69.6842 17.2877 70.0191 17.3516 70.3772C17.9761 70.212 18.6745 70.3551 19.1819 70.824C19.9738 71.561 20.0193 72.7943 19.289 73.5796L18.1942 74.7589C18.1875 74.7655 18.1809 74.7589 18.1809 74.7589C18.1676 74.7721 18.1742 74.7788 18.1695 74.7861C17.9833 74.9851 17.6605 74.9966 17.4616 74.8103ZM15.6581 71.7568L16.1909 71.1844C16.4636 70.8926 16.4324 70.4303 16.1405 70.1576C15.8487 69.8849 15.3977 69.9022 15.125 70.1941L14.5923 70.7665L15.6581 71.7568ZM17.7759 73.7263L18.5488 72.8932C18.8946 72.5085 18.8802 71.9234 18.4935 71.5636C18.1135 71.2104 17.5303 71.2388 17.1705 71.6122L16.3977 72.4452L17.7759 73.7263Z" fill="#92C83E"/>
<path d="M154.572 115.056C150.892 115.056 149.503 116.305 149.503 119.618C149.503 116.305 148.116 115.056 144.434 115.056C148.114 115.056 149.503 113.807 149.503 110.494C149.503 113.807 150.892 115.056 154.572 115.056Z" fill="#FFDE00"/>
<path d="M39.0087 47.1375C33.1196 47.1375 30.8959 49.2214 30.8959 54.7403C30.8959 49.2214 28.6723 47.1375 22.7893 47.1375C28.6784 47.1375 30.8959 45.0536 30.8959 39.5347C30.8959 45.0536 33.1196 47.1375 39.0087 47.1375Z" fill="#F8CA00"/>
<path d="M123.147 20.2742C118.729 20.2742 117.064 21.9386 117.064 26.3564C117.064 21.9386 115.4 20.2742 110.982 20.2742C115.4 20.2742 117.064 18.6097 117.064 14.1919C117.064 18.6097 118.729 20.2742 123.147 20.2742Z" fill="#F8CA00"/>
<g clip-path="url(#clip1_2_3795)">
<path d="M135.881 36.1311H155.015C158.683 36.1311 161.667 39.2086 161.667 42.9915V54.0298C161.667 57.8127 158.683 60.8902 155.015 60.8902H154.028L151.714 63.9173C151.534 64.1532 151.259 64.2907 150.968 64.2907C150.677 64.2907 150.401 64.1532 150.221 63.9173L147.907 60.8902H135.881C132.213 60.8902 129.229 57.8127 129.229 54.0298V42.9915C129.229 39.2086 132.213 36.1311 135.881 36.1311V36.1311Z" fill="#6787F5"/>
<path d="M149.012 62.3352L147.908 60.8906L149.012 62.3352Z" fill="white"/>
<path d="M129.229 44.1841H137.219L131.271 38.0501C132.468 36.8626 134.093 36.1311 135.881 36.1311H137.474L141.251 40.026V36.1311H149.645V40.026L153.422 36.1311H155.015C156.803 36.1311 158.428 36.8626 159.625 38.0501L153.677 44.1841H161.667V52.84H153.677L159.402 58.7435L159.624 58.9724C158.427 60.1595 156.802 60.8902 155.015 60.8902H154.028L153.76 61.2411L149.747 57.1027L149.812 60.8902H141.251V57.0087L137.5 60.8902H135.881C134.102 60.8902 132.483 60.1658 131.288 58.988L131.512 58.7562L137.23 52.84H129.229V44.1841Z" fill="white"/>
<path d="M143.152 46.1442V36.1311H147.744V46.1442H161.667V50.8799H147.744L147.907 60.8902H143.152V50.8799H129.229V46.1442H143.152Z" fill="#EE202E"/>
<path d="M143.152 46.1442V36.1311H145.448V60.8902H143.152V50.8799H129.229V46.1442H143.152Z" fill="#EE202E"/>
<path d="M149.012 44.8377V43.4518L156.033 36.2117C156.753 36.326 157.435 36.56 158.06 36.8931L150.356 44.8377H149.012Z" fill="#EE202E"/>
<path d="M132.837 36.8931C133.462 36.56 134.144 36.326 134.864 36.2117L141.885 43.4518V44.8377H140.541L132.837 36.8931Z" fill="#EE202E"/>
<path d="M158.056 60.1293C157.431 60.4621 156.749 60.6959 156.028 60.8102L149.01 53.5721V52.1863H150.354L158.056 60.1293Z" fill="#EE202E"/>
<path d="M141.885 52.1865V53.5765L134.89 60.814C134.169 60.7022 133.485 60.471 132.858 60.14L140.544 52.1865H141.885Z" fill="#EE202E"/>
</g>
<g clip-path="url(#clip2_2_3795)">
<path d="M111.218 11.7209H91.486C87.7031 11.7209 84.6256 14.7052 84.6256 18.3734V29.0773C84.6256 32.7455 87.7031 35.7297 91.486 35.7297H92.504L94.8901 38.6652C95.0762 38.8939 95.3597 39.0273 95.6599 39.0273C95.96 39.0273 96.2438 38.8939 96.4296 38.6652L98.8157 35.7297H111.218C115.001 35.7297 118.078 32.7455 118.078 29.0773V18.3734C118.078 14.7052 115.001 11.7209 111.218 11.7209V11.7209Z" fill="#EFEFEF"/>
<mask id="mask0_2_3795" style="mask-type:alpha" maskUnits="userSpaceOnUse" x="84" y="11" width="35" height="29">
<path d="M111.218 11.7209H91.486C87.7031 11.7209 84.6256 14.7052 84.6256 18.3734V29.0773C84.6256 32.7455 87.7031 35.7297 91.486 35.7297H92.504L94.8901 38.6652C95.0762 38.8939 95.3597 39.0273 95.6599 39.0273C95.96 39.0273 96.2438 38.8939 96.4296 38.6652L98.8157 35.7297H111.218C115.001 35.7297 118.078 32.7455 118.078 29.0773V18.3734C118.078 14.7052 115.001 11.7209 111.218 11.7209V11.7209Z" fill="#6787F5"/>
</mask>
<g mask="url(#mask0_2_3795)">
<path d="M84.7838 13.4007H122.727C122.339 12.3126 121.273 11.531 120.019 11.531H87.4915C86.2373 11.531 85.1722 12.3126 84.7838 13.4007Z" fill="#FF4B55"/>
<path d="M122.884 19.0095H84.6256V20.8792H122.884V19.0095Z" fill="#FF4B55"/>
<path d="M122.884 15.2708H84.6256V17.1404H122.884V15.2708Z" fill="#FF4B55"/>
<path d="M84.6256 23.9801C84.6256 24.3333 84.921 24.6197 85.2853 24.6197H122.884V22.75H84.6256V23.9801Z" fill="#FF4B55"/>
<path d="M122.884 30.2285H84.6256V32.0982H122.884V30.2285Z" fill="#FF4B55"/>
<path d="M122.727 33.9673H84.7838C85.1722 35.0554 86.2374 35.837 87.4915 35.837H120.019C121.273 35.837 122.339 35.0554 122.727 33.9673Z" fill="#FF4B55"/>
<path d="M122.884 26.4878H84.6256V28.3575H122.884V26.4878Z" fill="#FF4B55"/>
<path d="M85.2816 24.3886H101.68C102.042 24.3886 102.336 24.0963 102.336 23.7358V11.6843C102.336 11.3237 102.042 11.0315 101.68 11.0315H87.4748C85.9012 11.0316 84.6256 12.301 84.6256 13.8671V23.7358C84.6256 24.0964 84.9193 24.3886 85.2816 24.3886Z" fill="#41479B"/>
<path d="M86.4788 12.9985L86.6248 13.4231L87.0864 13.4265C87.1462 13.427 87.1709 13.5009 87.1229 13.5354L86.7516 13.8012L86.8909 14.2279C86.9089 14.2831 86.844 14.3289 86.7954 14.2952L86.4199 14.035L86.0444 14.2952C85.9958 14.329 85.931 14.2832 85.9489 14.228L86.0882 13.8013L85.7169 13.5354C85.6688 13.5009 85.6936 13.427 85.7534 13.4266L86.2149 13.4232L86.3609 12.9986C86.3798 12.9435 86.4599 12.9435 86.4788 12.9985Z" fill="white"/>
<path d="M86.4788 15.2201L86.6248 15.6447L87.0864 15.6482C87.1462 15.6487 87.1709 15.7225 87.1229 15.757L86.7516 16.0229L86.8909 16.4496C86.9089 16.5048 86.844 16.5506 86.7954 16.5169L86.4199 16.2567L86.0444 16.5169C85.9958 16.5506 85.931 16.5049 85.9489 16.4497L86.0882 16.023L85.7169 15.7571C85.6688 15.7226 85.6936 15.6487 85.7534 15.6482L86.2149 15.6448L86.3609 15.2202C86.3798 15.1652 86.4599 15.1652 86.4788 15.2201Z" fill="white"/>
<path d="M86.4788 17.4407L86.6248 17.8653L87.0864 17.8687C87.1462 17.8692 87.1709 17.943 87.1229 17.9775L86.7516 18.2434L86.8909 18.6701C86.9089 18.7253 86.844 18.7711 86.7954 18.7374L86.4199 18.4772L86.0444 18.7374C85.9958 18.7711 85.931 18.7255 85.9489 18.6702L86.0882 18.2435L85.7169 17.9776C85.6688 17.9431 85.6936 17.8692 85.7534 17.8687L86.2149 17.8653L86.3609 17.4407C86.3798 17.3857 86.4599 17.3857 86.4788 17.4407Z" fill="white"/>
<path d="M86.4788 19.6623L86.6248 20.0869L87.0864 20.0903C87.1462 20.0909 87.1709 20.1648 87.1229 20.1992L86.7516 20.4651L86.8909 20.8918C86.9089 20.947 86.844 20.9928 86.7954 20.9591L86.4199 20.6989L86.0444 20.9591C85.9958 20.9928 85.931 20.9471 85.9489 20.8919L86.0882 20.4652L85.7169 20.1993C85.6688 20.1649 85.6936 20.0909 85.7534 20.0904L86.2149 20.087L86.3609 19.6624C86.3798 19.6073 86.4599 19.6073 86.4788 19.6623Z" fill="white"/>
<path d="M86.4788 21.8827L86.6248 22.3073L87.0864 22.3108C87.1462 22.3113 87.1709 22.3851 87.1229 22.4196L86.7516 22.6855L86.8909 23.1122C86.9089 23.1674 86.844 23.2132 86.7954 23.1795L86.4199 22.9193L86.0444 23.1795C85.9958 23.2132 85.931 23.1675 85.9489 23.1123L86.0882 22.6856L85.7169 22.4197C85.6688 22.3852 85.6936 22.3113 85.7534 22.3108L86.2149 22.3074L86.3609 21.8828C86.3798 21.8278 86.4599 21.8278 86.4788 21.8827Z" fill="white"/>
<path d="M88.2607 14.0883L88.4067 14.5129L88.8683 14.5163C88.9281 14.5168 88.9528 14.5907 88.9047 14.6252L88.5334 14.8911L88.6727 15.3178C88.6908 15.373 88.6259 15.4188 88.5772 15.385L88.2017 15.1248L87.8263 15.385C87.7776 15.4187 87.7128 15.373 87.7308 15.3178L87.87 14.8911L87.4987 14.6252C87.4507 14.5907 87.4754 14.5168 87.5352 14.5163L87.9968 14.5129L88.1428 14.0883C88.1616 14.0334 88.2418 14.0334 88.2607 14.0883Z" fill="white"/>
<path d="M88.2607 16.3088L88.4067 16.7334L88.8683 16.7368C88.9281 16.7373 88.9528 16.8113 88.9047 16.8457L88.5334 17.1116L88.6727 17.5383C88.6908 17.5935 88.6259 17.6393 88.5772 17.6056L88.2017 17.3453L87.8263 17.6056C87.7776 17.6392 87.7128 17.5936 87.7308 17.5383L87.87 17.1116L87.4987 16.8457C87.4507 16.8113 87.4754 16.7373 87.5352 16.7368L87.9968 16.7334L88.1428 16.3088C88.1616 16.2538 88.2418 16.2538 88.2607 16.3088Z" fill="white"/>
<path d="M88.2607 18.5303L88.4067 18.9549L88.8683 18.9583C88.9281 18.9588 88.9528 19.0326 88.9047 19.0671L88.5334 19.333L88.6727 19.7597C88.6908 19.815 88.6259 19.8608 88.5772 19.827L88.2017 19.5667L87.8263 19.827C87.7776 19.8607 87.7128 19.815 87.7308 19.7597L87.87 19.333L87.4987 19.0671C87.4507 19.0326 87.4754 18.9588 87.5352 18.9583L87.9968 18.9549L88.1428 18.5303C88.1616 18.4753 88.2418 18.4753 88.2607 18.5303Z" fill="white"/>
<path d="M88.2607 20.7516L88.4067 21.1763L88.8683 21.1797C88.9281 21.1802 88.9528 21.254 88.9047 21.2885L88.5334 21.5544L88.6727 21.9811C88.6908 22.0363 88.6259 22.0821 88.5772 22.0484L88.2017 21.7881L87.8263 22.0484C87.7776 22.0821 87.7128 22.0363 87.7308 21.9811L87.87 21.5544L87.4987 21.2885C87.4507 21.254 87.4754 21.1802 87.5352 21.1797L87.9968 21.1763L88.1428 20.7516C88.1616 20.6967 88.2418 20.6967 88.2607 20.7516Z" fill="white"/>
<path d="M90.0347 12.9985L90.1808 13.4231L90.6423 13.4265C90.7021 13.427 90.7268 13.501 90.6788 13.5354L90.3075 13.8012L90.4468 14.2279C90.4649 14.2831 90.3999 14.3289 90.3513 14.2952L89.9758 14.0349L89.6003 14.2952C89.5517 14.3289 89.4869 14.2831 89.5048 14.2279L89.6441 13.8012L89.2728 13.5354C89.2247 13.5009 89.2495 13.427 89.3093 13.4265L89.7708 13.4231L89.9168 12.9985C89.9357 12.9435 90.0158 12.9435 90.0347 12.9985Z" fill="white"/>
<path d="M90.0347 15.2199L90.1808 15.6445L90.6423 15.6479C90.7021 15.6484 90.7268 15.7223 90.6788 15.7568L90.3075 16.0227L90.4468 16.4494C90.4649 16.5046 90.3999 16.5504 90.3513 16.5166L89.9758 16.2564L89.6003 16.5166C89.5517 16.5503 89.4869 16.5046 89.5048 16.4494L89.6441 16.0227L89.2728 15.7568C89.2247 15.7223 89.2495 15.6484 89.3093 15.6479L89.7708 15.6445L89.9168 15.2199C89.9357 15.165 90.0158 15.165 90.0347 15.2199Z" fill="white"/>
<path d="M90.0347 17.4404L90.1808 17.865L90.6423 17.8684C90.7021 17.8689 90.7268 17.9428 90.6788 17.9773L90.3075 18.2432L90.4468 18.6699C90.4649 18.7251 90.3999 18.7709 90.3513 18.7371L89.9758 18.4769L89.6003 18.7371C89.5517 18.7708 89.4869 18.7252 89.5048 18.6699L89.6441 18.2432L89.2728 17.9773C89.2247 17.9428 89.2495 17.8689 89.3093 17.8684L89.7708 17.865L89.9168 17.4404C89.9357 17.3854 90.0158 17.3854 90.0347 17.4404Z" fill="white"/>
<path d="M90.0347 19.6619L90.1808 20.0865L90.6423 20.0899C90.7021 20.0904 90.7268 20.1643 90.6788 20.1987L90.3075 20.4646L90.4468 20.8913C90.4649 20.9466 90.3999 20.9923 90.3513 20.9586L89.9758 20.6983L89.6003 20.9586C89.5517 20.9923 89.4869 20.9466 89.5048 20.8913L89.6441 20.4646L89.2728 20.1987C89.2247 20.1644 89.2495 20.0904 89.3093 20.0899L89.7708 20.0865L89.9168 19.6619C89.9357 19.6069 90.0158 19.6069 90.0347 19.6619Z" fill="white"/>
<path d="M90.0347 21.8832L90.1808 22.3078L90.6423 22.3112C90.7021 22.3118 90.7268 22.3856 90.6788 22.4201L90.3075 22.686L90.4468 23.1127C90.4649 23.1679 90.3999 23.2137 90.3513 23.18L89.9758 22.9197L89.6003 23.18C89.5517 23.2137 89.4869 23.1679 89.5048 23.1127L89.6441 22.686L89.2728 22.4201C89.2247 22.3856 89.2495 22.3118 89.3093 22.3112L89.7708 22.3078L89.9168 21.8832C89.9357 21.8283 90.0158 21.8283 90.0347 21.8832Z" fill="white"/>
<path d="M91.8125 14.0886L91.9585 14.5132L92.42 14.5166C92.4798 14.5171 92.5045 14.591 92.4565 14.6254L92.0852 14.8913L92.2245 15.318C92.2426 15.3733 92.1776 15.4191 92.129 15.3853L91.7535 15.125L91.378 15.3853C91.3294 15.419 91.2646 15.3733 91.2825 15.318L91.4218 14.8913L91.0505 14.6254C91.0025 14.5909 91.0272 14.5171 91.087 14.5166L91.5485 14.5132L91.6945 14.0886C91.7133 14.0336 91.7936 14.0336 91.8125 14.0886Z" fill="white"/>
<path d="M91.8125 16.3093L91.9585 16.7339L92.42 16.7373C92.4798 16.7378 92.5045 16.8117 92.4565 16.8462L92.0852 17.1121L92.2245 17.5388C92.2426 17.594 92.1776 17.6398 92.129 17.606L91.7535 17.3458L91.378 17.606C91.3294 17.6397 91.2646 17.5941 91.2825 17.5388L91.4218 17.1121L91.0505 16.8462C91.0025 16.8118 91.0272 16.7378 91.087 16.7373L91.5485 16.7339L91.6945 16.3093C91.7133 16.2543 91.7936 16.2543 91.8125 16.3093Z" fill="white"/>
<path d="M91.8125 18.5307L91.9585 18.9554L92.42 18.9588C92.4798 18.9593 92.5045 19.0331 92.4565 19.0676L92.0852 19.3335L92.2245 19.7602C92.2426 19.8154 92.1776 19.8612 92.129 19.8275L91.7535 19.5672L91.378 19.8275C91.3294 19.8612 91.2646 19.8154 91.2825 19.7602L91.4218 19.3335L91.0505 19.0676C91.0025 19.0331 91.0272 18.9593 91.087 18.9588L91.5485 18.9554L91.6945 18.5307C91.7133 18.4758 91.7936 18.4758 91.8125 18.5307Z" fill="white"/>
<path d="M91.8125 20.7514L91.9585 21.176L92.42 21.1794C92.4798 21.1799 92.5045 21.2538 92.4565 21.2882L92.0852 21.5542L92.2245 21.9809C92.2426 22.0361 92.1776 22.0819 92.129 22.0481L91.7535 21.7879L91.378 22.0481C91.3294 22.0819 91.2646 22.0361 91.2825 21.9809L91.4218 21.5542L91.0505 21.2882C91.0025 21.2538 91.0272 21.1799 91.087 21.1794L91.5485 21.176L91.6945 20.7514C91.7133 20.6965 91.7936 20.6965 91.8125 20.7514Z" fill="white"/>
<path d="M93.5867 12.9985L93.7327 13.4231L94.1943 13.4265C94.2541 13.427 94.2788 13.5009 94.2307 13.5354L93.8594 13.8012L93.9987 14.2279C94.0168 14.2831 93.9519 14.3289 93.9032 14.2952L93.5277 14.035L93.1522 14.2952C93.1035 14.329 93.0388 14.2832 93.0567 14.228L93.196 13.8013L92.8247 13.5354C92.7766 13.5009 92.8014 13.427 92.8611 13.4266L93.3227 13.4232L93.4687 12.9986C93.4876 12.9435 93.5678 12.9435 93.5867 12.9985Z" fill="white"/>
<path d="M93.5867 15.2199L93.7327 15.6445L94.1943 15.6479C94.2541 15.6484 94.2788 15.7223 94.2307 15.7568L93.8594 16.0227L93.9987 16.4494C94.0168 16.5046 93.9519 16.5504 93.9032 16.5166L93.5277 16.2564L93.1522 16.5166C93.1035 16.5503 93.0388 16.5046 93.0567 16.4494L93.196 16.0227L92.8247 15.7568C92.7766 15.7223 92.8014 15.6484 92.8611 15.6479L93.3227 15.6445L93.4687 15.2199C93.4876 15.165 93.5678 15.165 93.5867 15.2199Z" fill="white"/>
<path d="M93.5867 17.4404L93.7327 17.865L94.1943 17.8684C94.2541 17.8689 94.2788 17.9428 94.2307 17.9773L93.8594 18.2432L93.9987 18.6699C94.0168 18.7251 93.9519 18.7709 93.9032 18.7371L93.5277 18.4768L93.1522 18.7371C93.1035 18.7708 93.0388 18.725 93.0567 18.6698L93.196 18.2431L92.8247 17.9772C92.7766 17.9427 92.8014 17.8689 92.8611 17.8684L93.3227 17.865L93.4687 17.4404C93.4876 17.3854 93.5678 17.3854 93.5867 17.4404Z" fill="white"/>
<path d="M93.5867 19.6619L93.7327 20.0865L94.1943 20.0899C94.2541 20.0904 94.2788 20.1643 94.2307 20.1987L93.8594 20.4646L93.9987 20.8913C94.0168 20.9466 93.9519 20.9923 93.9032 20.9586L93.5277 20.6983L93.1522 20.9586C93.1035 20.9923 93.0388 20.9466 93.0567 20.8913L93.196 20.4646L92.8247 20.1987C92.7766 20.1644 92.8014 20.0904 92.8611 20.0899L93.3227 20.0865L93.4687 19.6619C93.4876 19.6069 93.5678 19.6069 93.5867 19.6619Z" fill="white"/>
<path d="M93.5867 21.8832L93.7327 22.3078L94.1943 22.3112C94.2541 22.3118 94.2788 22.3856 94.2307 22.4201L93.8594 22.686L93.9987 23.1127C94.0168 23.1679 93.9519 23.2137 93.9032 23.18L93.5277 22.9197L93.1522 23.18C93.1035 23.2137 93.0388 23.1679 93.0567 23.1127L93.196 22.686L92.8247 22.4201C92.7766 22.3856 92.8014 22.3118 92.8611 22.3112L93.3227 22.3078L93.4687 21.8832C93.4876 21.8283 93.5678 21.8283 93.5867 21.8832Z" fill="white"/>
<path d="M95.3681 14.0886L95.5141 14.5132L95.9757 14.5166C96.0355 14.5171 96.0602 14.591 96.0122 14.6254L95.6409 14.8913L95.7801 15.318C95.7982 15.3733 95.7333 15.4191 95.6846 15.3853L95.3092 15.125L94.9337 15.3853C94.885 15.419 94.8203 15.3733 94.8382 15.318L94.9775 14.8913L94.6062 14.6254C94.5581 14.5909 94.5829 14.5171 94.6426 14.5166L95.1042 14.5132L95.2502 14.0886C95.2691 14.0336 95.3492 14.0336 95.3681 14.0886Z" fill="white"/>
<path d="M95.3681 16.3093L95.5141 16.7339L95.9757 16.7373C96.0355 16.7378 96.0602 16.8117 96.0122 16.8462L95.6409 17.1121L95.7801 17.5388C95.7982 17.594 95.7333 17.6398 95.6846 17.606L95.3092 17.3458L94.9337 17.606C94.885 17.6397 94.8203 17.5941 94.8382 17.5388L94.9775 17.1121L94.6062 16.8462C94.5581 16.8118 94.5829 16.7378 94.6426 16.7373L95.1042 16.7339L95.2502 16.3093C95.2691 16.2543 95.3492 16.2543 95.3681 16.3093Z" fill="white"/>
<path d="M95.3681 18.5307L95.5141 18.9554L95.9757 18.9588C96.0355 18.9593 96.0602 19.0331 96.0122 19.0676L95.6409 19.3335L95.7801 19.7602C95.7982 19.8154 95.7333 19.8612 95.6846 19.8275L95.3092 19.5672L94.9337 19.8275C94.885 19.8612 94.8203 19.8154 94.8382 19.7602L94.9775 19.3335L94.6062 19.0676C94.5581 19.0331 94.5829 18.9593 94.6426 18.9588L95.1042 18.9554L95.2502 18.5307C95.2691 18.4758 95.3492 18.4758 95.3681 18.5307Z" fill="white"/>
<path d="M95.3681 20.7514L95.5141 21.176L95.9757 21.1794C96.0355 21.1799 96.0602 21.2538 96.0122 21.2882L95.6409 21.5542L95.7801 21.9809C95.7982 22.0361 95.7333 22.0819 95.6846 22.0481L95.3092 21.7879L94.9337 22.0481C94.885 22.0819 94.8203 22.0361 94.8382 21.9809L94.9775 21.5542L94.6062 21.2882C94.5581 21.2538 94.5829 21.1799 94.6426 21.1794L95.1042 21.176L95.2502 20.7514C95.2691 20.6965 95.3492 20.6965 95.3681 20.7514Z" fill="white"/>
<path d="M97.1461 12.9985L97.2921 13.4231L97.7536 13.4265C97.8134 13.427 97.8382 13.501 97.7901 13.5354L97.4188 13.8012L97.5581 14.2279C97.5762 14.2831 97.5112 14.3289 97.4626 14.2952L97.0871 14.0349L96.7116 14.2952C96.663 14.3289 96.5982 14.2831 96.6161 14.2279L96.7554 13.8012L96.3841 13.5354C96.3361 13.5009 96.3608 13.427 96.4206 13.4265L96.8822 13.4231L97.0282 12.9985C97.0469 12.9435 97.1272 12.9435 97.1461 12.9985Z" fill="white"/>
<path d="M97.1461 15.2201L97.2921 15.6448L97.7536 15.6482C97.8134 15.6487 97.8382 15.7225 97.7901 15.757L97.4188 16.0229L97.5581 16.4496C97.5762 16.5048 97.5112 16.5506 97.4626 16.5169L97.0871 16.2566L96.7116 16.5169C96.663 16.5506 96.5982 16.5048 96.6161 16.4496L96.7554 16.0229L96.3841 15.757C96.3361 15.7225 96.3608 15.6487 96.4206 15.6482L96.8822 15.6448L97.0282 15.2201C97.0469 15.1652 97.1272 15.1652 97.1461 15.2201Z" fill="white"/>
<path d="M97.1461 17.4407L97.2921 17.8653L97.7536 17.8687C97.8134 17.8692 97.8382 17.943 97.7901 17.9775L97.4188 18.2434L97.5581 18.6701C97.5762 18.7254 97.5112 18.7712 97.4626 18.7374L97.0871 18.4771L96.7116 18.7374C96.663 18.7711 96.5982 18.7254 96.6161 18.6701L96.7554 18.2434L96.3841 17.9775C96.3361 17.943 96.3608 17.8692 96.4206 17.8687L96.8822 17.8653L97.0282 17.4407C97.0469 17.3857 97.1272 17.3857 97.1461 17.4407Z" fill="white"/>
<path d="M97.1461 19.6623L97.2921 20.087L97.7536 20.0904C97.8134 20.0909 97.8382 20.1648 97.7901 20.1992L97.4188 20.4651L97.5581 20.8918C97.5762 20.947 97.5112 20.9928 97.4626 20.9591L97.0871 20.6988L96.7116 20.9591C96.663 20.9928 96.5982 20.947 96.6161 20.8918L96.7554 20.4651L96.3841 20.1992C96.3361 20.1648 96.3608 20.0909 96.4206 20.0904L96.8822 20.087L97.0282 19.6623C97.0469 19.6073 97.1272 19.6073 97.1461 19.6623Z" fill="white"/>
<path d="M97.1461 21.8827L97.2921 22.3074L97.7536 22.3108C97.8134 22.3113 97.8382 22.3851 97.7901 22.4196L97.4188 22.6855L97.5581 23.1122C97.5762 23.1674 97.5112 23.2132 97.4626 23.1795L97.0871 22.9192L96.7116 23.1795C96.663 23.2132 96.5982 23.1674 96.6161 23.1122L96.7554 22.6855L96.3841 22.4196C96.3361 22.3851 96.3608 22.3113 96.4206 22.3108L96.8822 22.3074L97.0282 21.8827C97.0469 21.8278 97.1272 21.8278 97.1461 21.8827Z" fill="white"/>
<path d="M98.9239 14.0886L99.0699 14.5132L99.5315 14.5166C99.5913 14.5171 99.616 14.591 99.5679 14.6254L99.1966 14.8913L99.3359 15.318C99.354 15.3733 99.2891 15.4191 99.2404 15.3853L98.8649 15.125L98.4895 15.3853C98.4408 15.419 98.376 15.3733 98.394 15.318L98.5333 14.8913L98.162 14.6254C98.1139 14.5909 98.1386 14.5171 98.1984 14.5166L98.66 14.5132L98.806 14.0886C98.8248 14.0336 98.905 14.0336 98.9239 14.0886Z" fill="white"/>
<path d="M98.9239 16.3093L99.0699 16.7339L99.5315 16.7373C99.5913 16.7378 99.616 16.8117 99.5679 16.8462L99.1966 17.1121L99.3359 17.5388C99.354 17.594 99.2891 17.6398 99.2404 17.606L98.8649 17.3458L98.4895 17.606C98.4408 17.6397 98.376 17.5941 98.394 17.5388L98.5333 17.1121L98.162 16.8462C98.1139 16.8118 98.1386 16.7378 98.1984 16.7373L98.66 16.7339L98.806 16.3093C98.8248 16.2543 98.905 16.2543 98.9239 16.3093Z" fill="white"/>
<path d="M98.9239 18.5307L99.0699 18.9554L99.5315 18.9588C99.5913 18.9593 99.616 19.0331 99.5679 19.0676L99.1966 19.3335L99.3359 19.7602C99.354 19.8154 99.2891 19.8612 99.2404 19.8275L98.8649 19.5672L98.4895 19.8275C98.4408 19.8612 98.376 19.8154 98.394 19.7602L98.5333 19.3335L98.162 19.0676C98.1139 19.0331 98.1386 18.9593 98.1984 18.9588L98.66 18.9554L98.806 18.5307C98.8248 18.4758 98.905 18.4758 98.9239 18.5307Z" fill="white"/>
<path d="M98.9239 20.7514L99.0699 21.176L99.5315 21.1794C99.5913 21.1799 99.616 21.2538 99.5679 21.2882L99.1966 21.5542L99.3359 21.9809C99.354 22.0361 99.2891 22.0819 99.2404 22.0481L98.8649 21.7879L98.4895 22.0481C98.4408 22.0819 98.376 22.0361 98.394 21.9809L98.5333 21.5542L98.162 21.2882C98.1139 21.2538 98.1386 21.1799 98.1984 21.1794L98.66 21.176L98.806 20.7514C98.8248 20.6965 98.905 20.6965 98.9239 20.7514Z" fill="white"/>
<path d="M100.702 12.9985L100.848 13.4231L101.309 13.4265C101.369 13.427 101.394 13.501 101.346 13.5354L100.975 13.8012L101.114 14.2279C101.132 14.2831 101.067 14.3289 101.018 14.2952L100.643 14.0349L100.267 14.2952C100.219 14.3289 100.154 14.2831 100.172 14.2279L100.311 13.8012L99.9399 13.5354C99.8919 13.5009 99.9166 13.427 99.9764 13.4265L100.438 13.4231L100.584 12.9985C100.603 12.9435 100.683 12.9435 100.702 12.9985Z" fill="white"/>
<path d="M100.702 15.2201L100.848 15.6448L101.309 15.6482C101.369 15.6487 101.394 15.7225 101.346 15.757L100.975 16.0229L101.114 16.4496C101.132 16.5048 101.067 16.5506 101.018 16.5169L100.643 16.2566L100.267 16.5169C100.219 16.5506 100.154 16.5048 100.172 16.4496L100.311 16.0229L99.9399 15.757C99.8919 15.7225 99.9166 15.6487 99.9764 15.6482L100.438 15.6448L100.584 15.2201C100.603 15.1652 100.683 15.1652 100.702 15.2201Z" fill="white"/>
<path d="M100.702 17.4407L100.848 17.8653L101.309 17.8687C101.369 17.8692 101.394 17.943 101.346 17.9775L100.975 18.2434L101.114 18.6701C101.132 18.7254 101.067 18.7712 101.018 18.7374L100.643 18.4771L100.267 18.7374C100.219 18.7711 100.154 18.7254 100.172 18.6701L100.311 18.2434L99.9399 17.9775C99.8919 17.943 99.9166 17.8692 99.9764 17.8687L100.438 17.8653L100.584 17.4407C100.603 17.3857 100.683 17.3857 100.702 17.4407Z" fill="white"/>
<path d="M100.702 19.6623L100.848 20.087L101.309 20.0904C101.369 20.0909 101.394 20.1648 101.346 20.1992L100.975 20.4651L101.114 20.8918C101.132 20.947 101.067 20.9928 101.018 20.9591L100.643 20.6988L100.267 20.9591C100.219 20.9928 100.154 20.947 100.172 20.8918L100.311 20.4651L99.9399 20.1992C99.8919 20.1648 99.9166 20.0909 99.9764 20.0904L100.438 20.087L100.584 19.6623C100.603 19.6073 100.683 19.6073 100.702 19.6623Z" fill="white"/>
<path d="M100.702 21.8827L100.848 22.3074L101.309 22.3108C101.369 22.3113 101.394 22.3851 101.346 22.4196L100.975 22.6855L101.114 23.1122C101.132 23.1674 101.067 23.2132 101.018 23.1795L100.643 22.9192L100.267 23.1795C100.219 23.2132 100.154 23.1674 100.172 23.1122L100.311 22.6855L99.9399 22.4196C99.8919 22.3851 99.9166 22.3113 99.9764 22.3108L100.438 22.3074L100.584 21.8827C100.603 21.8278 100.683 21.8278 100.702 21.8827Z" fill="white"/>
<path d="M97.677 37.1308L98.8155 35.73L97.677 37.1308Z" fill="white"/>
</g>
</g>
<defs>
<linearGradient id="paint0_linear_2_3795" x1="163.681" y1="118.613" x2="70.7592" y2="20.1558" gradientUnits="userSpaceOnUse">
<stop stop-color="#FDECED"/>
<stop offset="1" stop-color="#FFF3EE" stop-opacity="0"/>
</linearGradient>
<clipPath id="clip0_2_3795">
<rect width="17.2331" height="18.2468" fill="white" transform="translate(136.325 81.0967)"/>
</clipPath>
<clipPath id="clip1_2_3795">
<rect width="32.4387" height="33.4524" fill="white" transform="matrix(-1 0 0 1 161.667 33.4524)"/>
</clipPath>
<clipPath id="clip2_2_3795">
<rect width="33.4524" height="32.4387" fill="white" transform="translate(84.6256 9.12329)"/>
</clipPath>
</defs>
</svg>
