<svg width="140" height="98" viewBox="0 0 140 98" fill="none" xmlns="http://www.w3.org/2000/svg">
<path d="M115.119 71.7799C115.119 71.9552 114.983 72.0907 114.808 72.0907C114.641 72.0907 114.506 71.9552 114.506 71.7799V70.0112H114.061C113.902 70.0112 113.774 69.8837 113.774 69.7243C113.774 69.565 113.902 69.4375 114.061 69.4375H115.548C115.707 69.4375 115.835 69.565 115.835 69.7243C115.835 69.8916 115.707 70.0112 115.548 70.0112H115.111V71.7799H115.119Z" fill="white"/>
<path d="M116.901 71.3497L116.606 70.8717V71.7879C116.606 71.9552 116.471 72.0907 116.304 72.0907C116.137 72.0907 116.002 71.9552 116.002 71.7879V69.6606C116.002 69.5331 116.097 69.4375 116.225 69.4375C116.304 69.4375 116.376 69.4853 116.416 69.5491L117.243 70.9035L118.07 69.5491C118.11 69.4853 118.182 69.4375 118.261 69.4375C118.388 69.4375 118.484 69.5331 118.484 69.6606V71.7879C118.484 71.9552 118.349 72.0907 118.182 72.0907C118.014 72.0907 117.879 71.9552 117.879 71.7879V70.8717L117.585 71.3497C117.505 71.4692 117.386 71.5489 117.235 71.5489C117.1 71.5489 116.98 71.4692 116.901 71.3497Z" fill="white"/>
<path d="M71.4797 49.216C71.0422 49.216 70.5808 49.2001 70.1195 49.1682L70.032 49.1602C69.7297 49.1363 69.4354 49.1124 69.1331 49.0805L68.8945 49.0566C68.632 49.0248 68.3615 48.9849 68.091 48.9451L67.7888 48.8973C67.5263 48.8574 67.2479 48.8017 66.9695 48.7539C66.9695 48.7539 66.7467 48.714 66.6751 48.6981C66.3172 48.6264 65.9513 48.5467 65.5695 48.4591C64.8536 48.3077 59.8024 47.0807 56.3342 42.6428C56.3104 42.6189 56.2865 42.587 56.2706 42.5631C56.2547 42.5472 56.2388 42.5233 56.2229 42.5074C55.7217 41.854 55.2683 41.137 54.8786 40.388C54.7751 40.3402 54.6638 40.2844 54.5604 40.2207C54.5126 40.1968 54.4649 40.1649 54.4172 40.1331C54.3536 40.0932 54.2899 40.0534 54.2263 40.0135C54.1467 39.9657 54.0751 39.9179 54.0115 39.8622C53.9479 39.8144 53.8604 39.7427 53.7808 39.6709C53.7013 39.5992 53.6297 39.5355 53.5581 39.4638C53.4626 39.3682 53.3911 39.2805 53.3195 39.1929C53.2558 39.1132 53.1763 39.0176 53.0888 38.8901C52.9933 38.7547 52.9217 38.6192 52.874 38.5316C52.8263 38.4519 52.7706 38.3483 52.7229 38.2129C52.6433 38.0217 52.5797 37.8305 52.532 37.6233C52.5161 37.5675 52.5081 37.5118 52.4922 37.464C52.4922 37.448 52.4842 37.4321 52.4842 37.4241C52.3331 36.6353 52.4286 35.8306 52.7467 35.01C52.7945 34.8905 52.8501 34.7709 52.9138 34.6594C52.9456 34.6036 52.9854 34.5399 53.0172 34.4841C53.0013 34.3327 52.9854 34.1814 52.9854 34.03C52.9854 33.9981 52.9854 33.9583 52.9854 33.9184C52.9854 33.775 52.9933 33.6236 53.0013 33.4802C53.0092 33.4244 53.0092 33.3687 53.0172 33.3129C53.0331 33.1934 53.057 33.05 53.0888 32.9066C53.1047 32.8508 53.1126 32.787 53.1286 32.7313C53.1922 32.5002 53.2638 32.309 53.3433 32.1257C53.4388 31.9106 53.5501 31.7035 53.6774 31.5122C53.6933 31.4883 53.7013 31.4724 53.7172 31.4485C53.7331 31.4246 53.749 31.4087 53.7649 31.3848C53.8842 31.2174 54.0195 31.0581 54.1626 30.9147C54.1706 30.9067 54.1786 30.8987 54.1865 30.8908C54.2422 30.835 54.3138 30.7713 54.3854 30.7155C54.4967 30.6199 54.6161 30.5243 54.7751 30.4287C54.7751 30.4287 54.7831 30.4287 54.7831 30.4207C53.0172 26.9309 53.3036 24.1344 53.924 22.3178C53.932 22.2939 53.9399 22.27 53.9479 22.2461C55.2842 18.6288 58.3467 17.2505 60.5581 17.1628C60.5979 17.1628 60.6297 17.1628 60.6695 17.1628C60.6933 17.1628 60.7251 17.1628 60.749 17.1628C60.9717 17.1708 61.1945 17.1867 61.4172 17.2106C61.2581 16.868 61.1626 16.5732 61.1149 16.3422C60.7808 14.9558 61.1706 13.5615 62.1411 12.717C62.4115 12.4779 62.7376 12.2708 63.0956 12.1274C63.5172 11.9521 63.9626 11.8644 64.432 11.8644C64.6945 11.8644 64.949 11.8883 65.2115 11.9441C65.3149 11.8485 65.4183 11.7609 65.5297 11.6812C65.6092 11.6254 65.6808 11.5696 65.7604 11.5218C65.7683 11.5139 65.7842 11.5059 65.7922 11.5059C66.0308 11.3625 66.2854 11.243 66.5399 11.1633C66.5876 11.1474 66.6274 11.1314 66.6672 11.1235C66.6592 11.1155 66.2933 10.6932 66.2933 10.6853C66.2933 10.6853 66.1342 10.494 66.1263 10.4781C65.4501 9.60964 65.3388 8.42249 65.8399 7.44249C66.3013 6.48639 67.2876 5.88086 68.3615 5.88086C68.3854 5.88086 68.4092 5.88086 68.4331 5.88086C70.6206 5.93663 84.4456 9.73712 84.5808 9.77696C85.8138 10.1435 86.6808 11.0438 87.0706 11.5139C87.3729 11.8485 87.9695 12.5496 89.5842 14.6053L90.4592 15.7287C90.499 15.7765 90.5308 15.8163 90.5626 15.8641L90.9047 16.2944C90.9365 16.3422 90.9763 16.382 91.0081 16.4298L91.7797 17.4257C91.7956 17.4496 91.8115 17.4735 91.8354 17.4974C93.9513 20.2383 95.9876 22.9153 96.0115 22.9472C96.6558 23.7918 96.7672 24.9152 96.3376 25.8553C97.6899 27.2735 98.724 29.4088 98.549 32.2054C98.549 32.2293 98.549 32.2532 98.541 32.2771C98.5251 32.4763 98.5013 32.6914 98.4615 32.8986C98.4535 32.9544 98.4456 33.0022 98.4376 33.05C98.4058 33.2412 98.374 33.4005 98.3342 33.5599L98.2944 33.7272C98.2467 33.9184 98.199 34.1017 98.1354 34.2849C98.1194 34.3248 98.1115 34.3646 98.0956 34.4124C97.2604 36.9939 95.3513 39.2726 92.424 41.1688C92.3365 41.2246 92.241 41.2804 92.1456 41.3282C89.966 42.4118 87.6035 43.0093 85.4876 43.0093C85.2092 43.0093 84.9308 43.0014 84.6604 42.9774C84.382 43.2802 84.0956 43.575 83.8092 43.8539C83.8092 43.8539 83.7854 43.8778 83.7774 43.8857C83.5229 44.1327 83.2604 44.3797 82.9979 44.6108L82.8785 44.7144C82.6479 44.9135 82.4172 45.1048 82.1945 45.2801C82.1945 45.2801 82.0592 45.3836 82.0115 45.4235C81.8922 45.5191 81.7649 45.6147 81.6376 45.7023C81.5263 45.782 81.4229 45.8617 81.3115 45.9413C81.1524 46.0529 81.0013 46.1565 80.8501 46.2601C80.7388 46.3318 80.6274 46.4035 80.524 46.4752C80.3808 46.5628 80.2456 46.6505 80.1104 46.7301C79.9751 46.8098 79.8399 46.8895 79.7047 46.9612C79.6172 47.009 79.5138 47.0648 79.4183 47.1205C79.2592 47.2082 79.0922 47.2958 78.9331 47.3755C78.9092 47.3835 78.8854 47.3994 78.8615 47.4074C77.7717 47.9492 76.6263 48.3794 75.4649 48.6901C75.0513 48.8096 74.6217 48.9053 74.1922 48.977L74.0729 49.0009C73.9695 49.0168 73.866 49.0327 73.7706 49.0407C73.0388 49.1602 72.2751 49.216 71.4797 49.216Z" fill="white"/>
<path d="M60.6454 20.0137C61.1068 20.0296 61.5602 20.1013 62.0057 20.2288C62.7614 20.42 63.4534 20.7945 64.0659 21.3044C64.0739 21.3044 64.0739 21.3124 64.0818 21.3203C66.3011 23.1608 67.5341 26.7143 67.5102 29.5667C67.5102 29.5667 64.5829 29.6464 63.6523 34.0285C61.7591 33.8054 59.6273 32.3314 58.092 30.475C56.0318 27.3278 56.0318 24.9137 56.6045 23.2405C57.7182 20.2288 60.3114 20.0296 60.6454 20.0137Z" fill="#FCD9B7"/>
<path d="M58.9511 30.8972C56.8909 27.7501 56.8909 25.3359 57.4636 23.6628C58.5773 20.6511 61.1704 20.4519 61.5125 20.4359C61.9738 20.4519 62.4273 20.5236 62.8727 20.6511C63.0398 20.6909 63.1988 20.7467 63.3579 20.8025C62.9363 20.5475 62.4909 20.3483 62.0136 20.2288C61.5682 20.1013 61.1068 20.0296 60.6534 20.0137C60.3113 20.0296 57.7182 20.2288 56.6045 23.2405C56.0318 24.9137 56.0318 27.3278 58.092 30.475C59.2454 31.8693 60.725 33.0405 62.1966 33.6381C61.0193 32.9847 59.8818 32.0127 58.9511 30.8972Z" fill="url(#paint0_radial)"/>
<path d="M62.1406 29.4472C62.1406 29.4472 62.7928 29.3675 62.6894 28.6186C62.586 27.8696 62.2201 27.0888 62.8246 27.0251C63.4292 26.9613 64.8133 27.6704 63.986 25.7742C63.1508 23.8699 60.4144 21.9816 59.1337 23.368C57.8531 24.7623 59.3087 29.7021 62.1406 29.4472Z" fill="#E08E62"/>
<path opacity="0.33" d="M60.6454 20.0137C61.1068 20.0296 61.5602 20.1013 62.0057 20.2288C62.7614 20.42 63.4534 20.7945 64.0659 21.3044C64.0739 21.3044 64.0739 21.3124 64.0818 21.3203C66.3011 23.1608 67.5341 26.7143 67.5102 29.5667C67.5102 29.5667 64.5829 29.6464 63.6523 34.0285C61.7591 33.8054 59.6273 32.3314 58.092 30.475C56.0318 27.3278 56.0318 24.9137 56.6045 23.2405C57.7182 20.2288 60.3114 20.0296 60.6454 20.0137Z" fill="url(#paint1_linear)"/>
<path d="M80.0307 18.7788C77.0478 17.1853 74.6455 16.5479 72.0921 16.7152C72.0841 16.7152 72.0682 16.7152 72.0603 16.7152C70.5966 16.8666 70.35 16.3647 69.7614 15.5759C69.1728 14.7951 67.7091 12.9865 66.8977 14.325C66.0943 15.6635 68.7114 17.3526 68.7114 17.3526C68.7114 17.3526 68.4012 17.1933 68.0512 17.01C67.4705 16.6913 66.6353 16.1973 66.1341 15.7113C65.2909 14.9225 64.4398 14.4764 63.9943 14.8747C63.5568 15.2572 63.7955 17.1455 66.8818 17.9104C66.8023 17.9422 66.7228 17.9821 66.6512 18.0219C66.6193 18.0378 66.5875 18.0538 66.5478 18.0697C66.2296 18.2211 65.7443 18.476 65.1716 18.8505C65.108 18.8983 65.0682 18.9222 65.0682 18.9222C64.1375 19.5676 63.0159 20.5396 62.0852 21.9499C61.6239 22.6908 61.25 23.4557 60.9477 24.2126C60.3034 25.9734 59.9932 28.1645 60.3512 30.8894C58.975 31.3595 57.9012 33.2717 57.9012 33.2717C57.75 33.0326 56.4375 32.1243 55.9364 33.2637C55.4273 34.403 56.6125 35.6778 56.6125 35.6778C55.8012 35.2795 55.3716 36.0284 55.3716 36.0284C54.6796 37.7733 56.9068 38.0123 56.9068 38.0123C59.508 44.3544 66.1818 45.6531 66.1818 45.6531C69.2443 46.3782 71.6228 46.4897 73.4841 46.2029C73.4921 46.2029 73.508 46.2029 73.5239 46.2029C73.5796 46.1949 73.6353 46.179 73.6909 46.171C73.8023 46.1471 73.9057 46.1312 74.0171 46.1073C74.0728 46.0993 74.1284 46.0834 74.1921 46.0754C74.2955 46.0515 74.3989 46.0276 74.4943 46.0037C77.5409 45.2627 81.2955 43.2947 84.6125 38.4904C84.7955 38.1876 84.9705 37.8769 85.1296 37.5582C87.9375 31.9411 87.3409 22.6829 80.0307 18.7788Z" fill="#EB2227"/>
<path d="M77.6523 44.8406C79.633 43.8447 81.7251 42.2432 83.7137 39.7175L83.8489 36.4668C83.8489 36.4668 81.3273 42.1237 78.2728 44.2192C77.9069 44.4821 77.716 44.6813 77.6523 44.8406Z" fill="url(#paint2_linear)"/>
<path d="M58.2669 32.7226C58.5215 32.8581 58.7203 33.0174 58.776 33.1051C58.776 33.1051 59.8499 31.1929 61.226 30.7307C60.8601 28.0059 61.1783 25.8068 61.8226 24.046C62.1249 23.2891 62.4987 22.5322 62.9601 21.7833C63.8908 20.373 65.0124 19.393 65.9431 18.7556C65.9431 18.7556 65.9828 18.7238 66.0544 18.6839C66.6192 18.3015 67.1044 18.0465 67.4226 17.8951C67.4544 17.8792 67.4862 17.8633 67.526 17.8473C67.6056 17.8075 67.6851 17.7756 67.7646 17.7358C64.8931 17.0267 64.4874 15.3455 64.7976 14.8038C64.4794 14.7002 64.209 14.7002 64.0101 14.8755C63.5726 15.2579 63.8112 17.1462 66.8976 17.9111C66.8181 17.9429 66.7385 17.9828 66.6669 18.0226C66.6351 18.0386 66.6033 18.0545 66.5635 18.0704C66.2453 18.2218 65.7601 18.4768 65.1874 18.8512C65.1237 18.899 65.084 18.9229 65.084 18.9229C64.1533 19.5683 63.0317 20.5403 62.101 21.9506C61.6397 22.6916 61.2658 23.4564 60.9635 24.2133C60.3192 25.9742 60.009 28.1652 60.3669 30.8901C59.4601 31.2008 58.6885 32.1171 58.2669 32.7226ZM74.359 46.0363C72.4897 46.3231 70.1112 46.2116 67.0487 45.4865C67.0487 45.4865 60.3828 44.1878 57.7817 37.8457C57.7817 37.8457 55.5544 37.6067 56.2465 35.8618C56.2465 35.8618 56.3181 35.7423 56.4533 35.6228C55.7453 35.3997 55.3794 36.0371 55.3794 36.0371C54.6874 37.782 56.9147 38.021 56.9147 38.021C59.5158 44.3631 66.1896 45.6618 66.1896 45.6618C69.2521 46.3868 71.6306 46.4984 73.4919 46.2116C73.4999 46.2116 73.5158 46.2116 73.5317 46.2116C73.5874 46.2036 73.6431 46.1877 73.6987 46.1797C73.8101 46.1558 73.9135 46.1399 74.0249 46.1159C74.0806 46.108 74.1362 46.092 74.1999 46.0841C74.2556 46.0761 74.3192 46.0602 74.3749 46.0442C74.3749 46.0363 74.3669 46.0363 74.359 46.0363ZM67.001 15.5447C67.5101 16.0228 68.3374 16.5168 68.9181 16.8355C69.276 17.0187 69.5783 17.186 69.5783 17.186C69.5783 17.186 66.9612 15.489 67.7646 14.1584C67.8283 14.0628 67.8919 13.9831 67.9556 13.9194C67.5658 13.776 67.1919 13.8477 66.8976 14.3257C66.6828 14.6763 66.7147 15.0587 66.8737 15.4252C66.9215 15.4651 66.9612 15.4969 67.001 15.5447ZM56.5249 35.567C56.7317 35.4156 57.0499 35.2961 57.4874 35.5033C57.4874 35.5033 56.3022 34.2285 56.8033 33.0891C56.8669 32.9377 56.9465 32.8342 57.034 32.7465C56.6283 32.6429 56.1828 32.6987 55.9362 33.2644C55.5147 34.2125 56.2544 35.2403 56.5249 35.567Z" fill="url(#paint3_radial)"/>
<path d="M78.352 33.8463C78.6463 33.0336 81.852 27.2333 76.3236 24.5801C72.9827 22.9707 70.8986 23.9029 69.777 24.8829C68.8861 25.5044 68.5997 24.851 68.5997 24.851C68.2657 23.4727 67.327 22.7317 66.5952 22.3652C65.6486 21.9031 63.9781 22.0465 62.6975 24.6678C61.4168 27.2971 61.2338 30.731 61.2338 30.731L60.7247 30.7948C59.1816 31.0019 57.9168 33.2647 57.9168 33.2647C57.7656 33.0257 56.4531 32.1174 55.952 33.2567C55.4429 34.3961 56.6281 35.6709 56.6281 35.6709C55.8168 35.2725 55.3872 36.0214 55.3872 36.0214C54.6952 37.7663 56.9225 38.0053 56.9225 38.0053C59.5236 44.3475 66.1975 45.6461 66.1975 45.6461C76.5145 48.0842 79.1316 43.5985 80.1895 40.2283C81.2475 36.874 78.352 33.8463 78.352 33.8463Z" fill="#FCD9B7"/>
<path d="M76.3241 24.5876C72.9831 22.9782 70.8991 23.9104 69.7775 24.8904C69.5866 25.0258 69.4195 25.0975 69.2763 25.1294C69.3479 25.3047 69.4036 25.4959 69.4434 25.6951C69.4434 25.6951 69.7059 26.3564 70.6206 25.7588C71.7741 24.8107 73.882 23.9502 77.1752 25.6712C77.9627 26.0855 78.5672 26.5556 79.0206 27.0655C78.5593 26.1254 77.7161 25.2569 76.3241 24.5876ZM79.0366 34.7223C78.9809 34.8418 78.9331 34.9374 78.9093 35.0011C78.9093 35.0011 79.5695 35.7421 80.1104 36.8735C79.8241 35.9891 79.4025 35.2481 79.0366 34.7223ZM57.09 38.4192C57.4957 39.3195 57.9888 40.1162 58.5297 40.8174C58.0763 40.1162 57.6786 39.3434 57.3525 38.4749C57.3525 38.467 57.2491 38.451 57.09 38.4192ZM62.69 24.6753C61.4093 27.3045 61.2263 30.7385 61.2263 30.7385L60.7172 30.8023C59.1741 31.0094 57.9093 33.2722 57.9093 33.2722C57.7582 33.0332 56.4457 32.1249 55.9445 33.2642C55.4354 34.4036 56.6207 35.6784 56.6207 35.6784C55.8093 35.28 55.3797 36.0289 55.3797 36.0289C55.0377 36.9054 55.4275 37.3993 55.9047 37.6782C55.7059 37.3834 55.6422 36.9771 55.8809 36.4273C55.8809 36.4273 56.3263 35.6863 57.1297 36.1086C57.1297 36.1086 55.9843 34.794 56.5252 33.6706C57.0661 32.5471 57.79 33.5351 57.9252 33.7741C57.9252 33.7741 59.5957 31.3919 61.3695 31.36L61.8866 31.3122C61.8866 31.3122 62.1809 27.8862 63.5491 25.3047C64.9172 22.7232 66.5877 22.6276 67.5184 23.1216C67.6059 23.1694 67.7013 23.2252 67.7968 23.281C67.415 22.8427 66.9775 22.54 66.5877 22.3488C65.6411 21.9106 63.9786 22.054 62.69 24.6753Z" fill="url(#paint4_radial)"/>
<path d="M86.649 29.7343C86.4184 25.7426 84.6922 21.7349 80.874 19.2969C79.6013 19.4642 78.4877 20.3725 80.1263 21.8465C84.8672 26.1011 81.2797 33.6861 81.2797 33.6861C81.2797 33.6861 84.9468 30.5629 86.649 29.7343Z" fill="url(#paint5_linear)"/>
<path d="M93.0042 26.8743C92.5269 26.683 92.0258 26.5476 91.5087 26.4759C90.6417 26.3325 89.7667 26.3962 88.9076 26.6432C88.8996 26.6432 88.8917 26.6432 88.8837 26.6432C85.7655 27.5276 82.886 30.619 81.6133 33.551C81.6212 33.551 84.5883 34.9692 83.5542 39.8931C85.5985 40.5305 88.4621 39.9808 90.8803 38.7777C94.428 36.483 95.5258 34.0051 95.6928 32.0292C95.9235 28.4359 93.3462 27.0495 93.0042 26.8743Z" fill="#FCD9B7"/>
<path d="M87.1974 35.8854C87.1974 35.8854 86.569 35.5109 87.0065 34.7859C87.444 34.0608 88.1838 33.4314 87.5872 33.0888C86.9906 32.7542 85.2486 32.8498 86.9588 31.2722C88.677 29.7026 92.352 29.0015 93.0361 31.0093C93.7202 33.025 89.9815 37.439 87.1974 35.8854Z" fill="#E08E62"/>
<path d="M89.6395 33.5985C89.194 34.69 88.5577 35.5266 87.9293 36.156C87.6827 36.1082 87.4361 36.0206 87.1974 35.8851C87.1974 35.8851 86.569 35.5107 87.0065 34.7856C87.444 34.0606 88.1838 33.4312 87.5872 33.0886C86.9906 32.7539 85.2486 32.8495 86.9588 31.272C87.3009 30.9612 87.7304 30.6824 88.1918 30.4434C89.1861 30.8019 90.4349 31.6385 89.6395 33.5985Z" fill="#603A17"/>
<path d="M88.5021 27.918C88.51 27.918 88.51 27.918 88.518 27.91C89.3771 27.671 90.2521 27.5993 91.1191 27.7427C91.6362 27.8224 92.1373 27.9499 92.6146 28.1411C92.9566 28.3084 95.5339 29.7027 95.3112 33.296C95.2873 33.5351 95.2555 33.7741 95.2077 34.029C95.4941 33.3279 95.6452 32.6507 95.693 32.0292C95.9157 28.4279 93.3464 27.0416 92.9964 26.8743C92.5191 26.683 92.018 26.5476 91.5009 26.4759C90.6339 26.3325 89.7589 26.3962 88.8998 26.6432C88.8918 26.6432 88.8839 26.6432 88.8759 26.6432C85.7577 27.5276 82.8782 30.619 81.6055 33.551C81.6055 33.551 81.685 33.5908 81.8043 33.6705C83.268 31.1209 85.7975 28.6908 88.5021 27.918Z" fill="url(#paint6_radial)"/>
<path opacity="0.43" d="M93.0042 26.8743C92.5269 26.683 92.0258 26.5476 91.5087 26.4759C90.6417 26.3325 89.7667 26.3962 88.9076 26.6432C88.8996 26.6432 88.8917 26.6432 88.8837 26.6432C85.7655 27.5276 82.894 30.619 81.6133 33.551C81.6212 33.551 84.5883 34.9692 83.5542 39.8931C85.5985 40.5305 88.4621 39.9808 90.8803 38.7777C94.428 36.483 95.5258 34.0051 95.6928 32.0292C95.9235 28.4359 93.3462 27.0495 93.0042 26.8743Z" fill="url(#paint7_radial)"/>
<path d="M68.3613 8.73242C68.3613 8.73242 71.925 13.2022 77.517 16.684C83.109 20.1578 88.2556 22.7552 93.7363 24.6753C93.7363 24.6753 86.1795 14.7319 84.9068 13.3854C84.9068 13.3854 84.3659 12.6923 83.7693 12.517C83.1806 12.3417 69.9443 8.77226 68.3613 8.73242Z" fill="#49494B"/>
<path d="M82.9183 13.3137C82.9183 13.3137 88.383 18.3332 89.624 19.7036C89.8387 19.9427 89.7671 19.7116 89.5205 19.1778C87.5558 16.6362 85.5115 14.0308 84.9069 13.3854C84.9069 13.3854 84.366 12.6923 83.7694 12.517C83.1808 12.3417 69.9365 8.77226 68.3535 8.73242C68.3535 8.73242 69.4115 10.055 71.2728 11.8238C71.4558 11.9035 71.5592 11.9593 71.5592 11.9593C71.5592 11.9593 70.891 10.6685 70.7956 10.4932C70.7081 10.3259 79.8876 12.5249 82.9183 13.3137Z" fill="url(#paint8_linear)"/>
<path d="M76.6339 13.8711L71.4316 16.7713C71.4316 16.7713 72.6169 20.2052 77.2544 22.2449C81.8919 24.2926 85.2646 24.2049 85.2646 24.2049L85.9169 19.1615C85.9248 19.1535 82.2021 14.5165 76.6339 13.8711Z" fill="#4E4C50"/>
<path d="M83.9521 17.4486C83.9521 17.4486 83.5703 16.9786 82.8146 16.3491C81.2316 15.2417 79.1157 14.1581 76.6339 13.8633L71.4316 16.7634C71.4316 16.7634 72.0203 18.4605 73.9851 20.1735C74.0885 20.1895 74.1521 20.1974 74.1521 20.1974L72.8953 17.4805L76.7055 15.2337C76.6975 15.2337 80.6589 15.3691 83.9521 17.4486Z" fill="url(#paint9_linear)"/>
<path opacity="0.78" d="M85.2729 24.1968L85.9252 19.1534C85.9252 19.1534 85.3843 18.4762 84.4059 17.6077L84.3104 17.5918L82.4252 21.7747C81.6854 23.4001 79.4502 23.0655 79.4502 23.0655L81.3911 23.6789C81.3911 23.6789 81.765 23.7746 82.4888 23.8781C84.215 24.2207 85.2729 24.1968 85.2729 24.1968Z" fill="url(#paint10_linear)"/>
<path opacity="0.78" d="M86.1872 19.082L89.5678 19.7194L93.0201 24.1494C93.0201 24.1494 87.3087 21.9822 85.9326 21.0819L86.1872 19.082Z" fill="url(#paint11_linear)"/>
<path opacity="0.65" d="M79.5936 40.1172C79.5936 40.1172 78.4561 45.6626 71.9971 45.6626C71.9971 45.6626 76.6107 45.0411 79.5936 40.1172Z" fill="url(#paint12_radial)"/>
<path d="M71.376 36.523C71.376 36.523 73.5317 33.5113 77.668 35.6306C77.668 35.6227 74.4783 34.9056 71.376 36.523Z" fill="url(#paint13_radial)"/>
<path opacity="0.43" d="M78.352 33.8463C78.6463 33.0336 81.852 27.2333 76.3236 24.5801C72.9827 22.9707 70.8986 23.9029 69.777 24.8829C68.8861 25.5044 68.5997 24.851 68.5997 24.851C68.2657 23.4727 67.327 22.7317 66.5952 22.3652C65.6486 21.9031 63.9781 22.0465 62.6975 24.6678C61.4168 27.2971 61.2338 30.731 61.2338 30.731L60.7247 30.7948C59.1816 31.0019 57.9168 33.2647 57.9168 33.2647C57.7656 33.0257 56.4531 32.1174 55.952 33.2567C55.4429 34.3961 56.6281 35.6709 56.6281 35.6709C55.8168 35.2725 55.3872 36.0214 55.3872 36.0214C54.6952 37.7663 56.9225 38.0053 56.9225 38.0053C59.5236 44.3475 66.1975 45.6461 66.1975 45.6461C76.5145 48.0842 79.1316 43.5985 80.1895 40.2283C81.2475 36.874 78.352 33.8463 78.352 33.8463Z" fill="url(#paint14_radial)"/>
<path d="M74.6533 26.5949C74.2635 26.085 73.7942 25.9416 73.4044 25.9336C72.6488 25.9336 72.3385 26.3399 72.2749 26.4435C72.259 26.4754 72.2431 26.4993 72.2351 26.5312C72.076 27.0012 72.4419 27.2482 72.6806 27.0172C72.8397 26.8658 73.1181 26.7542 73.3965 26.7144C73.5715 26.7064 74.0169 26.7303 74.3113 27.1287C74.3272 27.1446 74.3431 27.1606 74.351 27.1765C74.3669 27.1925 74.3829 27.2164 74.3988 27.2323C74.5499 27.4394 74.6692 27.6386 74.701 27.6705C74.7726 27.7502 74.8522 27.6466 74.8522 27.6466C74.9317 27.2084 74.8363 26.8658 74.6533 26.5949Z" fill="#603A17"/>
<path d="M64.9327 24.5392C65.4179 24.2205 65.8315 24.2603 66.1338 24.3958C66.7145 24.6826 66.794 25.1607 66.8099 25.2881C66.8099 25.32 66.8179 25.3519 66.8099 25.3837C66.7542 25.8777 66.3883 25.9654 66.2849 25.6706C66.2133 25.4714 66.0463 25.2642 65.8474 25.1208C65.7202 25.0491 65.3702 24.9057 64.9963 25.1607C64.9804 25.1686 64.9565 25.1766 64.9486 25.1925C64.9327 25.2085 64.9088 25.2164 64.8929 25.2324C64.702 25.3678 64.5349 25.5033 64.4952 25.5272C64.4077 25.567 64.3838 25.4475 64.3838 25.4475C64.4952 24.9933 64.694 24.7145 64.9327 24.5392Z" fill="#603A17"/>
<path d="M74.8765 32.9448C74.2322 34.602 72.6095 35.5103 71.2572 34.9844C69.9049 34.4586 69.3322 32.6898 69.9765 31.0326C70.6208 29.3753 72.2435 28.467 73.5958 28.9929C74.9481 29.5267 75.5208 31.2955 74.8765 32.9448Z" fill="url(#paint15_radial)"/>
<path opacity="0.13" d="M75.0113 32.9458C74.3192 34.6986 72.601 35.6627 71.1613 35.1129C69.7215 34.5552 69.1169 32.6828 69.801 30.93C70.4851 29.1772 72.2113 28.2051 73.651 28.7628C75.0908 29.3206 75.7033 31.1929 75.0113 32.9458Z" fill="url(#paint16_linear)"/>
<path opacity="0.13" d="M66.7704 30.7788C66.0227 32.1731 64.575 32.6671 63.5409 31.9022C62.5068 31.1294 62.2761 29.3845 63.0238 27.9902C63.7716 26.5959 65.2193 26.0939 66.2534 26.8668C67.2795 27.6396 67.5181 29.3925 66.7704 30.7788Z" fill="url(#paint17_linear)"/>
<path d="M66.9697 29.8871C66.6357 31.4009 65.4345 32.4367 64.2811 32.2056C63.1277 31.9666 62.4675 30.5484 62.8016 29.0345C63.1357 27.5128 64.3368 26.485 65.4902 26.716C66.6436 26.9471 67.3038 28.3653 66.9697 29.8871Z" fill="url(#paint18_radial)"/>
<path d="M66.3804 30.2766C66.1338 30.9937 65.4895 31.4239 64.9326 31.2327C64.3838 31.0415 64.1372 30.3005 64.3838 29.5914C64.6304 28.8743 65.2747 28.4441 65.8315 28.6353C66.3804 28.8185 66.627 29.5515 66.3804 30.2766Z" fill="url(#paint19_radial)"/>
<path d="M66.094 30.3015C65.9031 30.8513 65.4258 31.178 65.0281 31.0425C64.6224 30.9071 64.4553 30.3414 64.6383 29.7996C64.8213 29.2498 65.2985 28.9152 65.7042 29.0586C66.1019 29.1941 66.2769 29.7518 66.094 30.3015Z" fill="#341718"/>
<path d="M65.227 29.5128C65.1316 29.696 64.9327 29.7757 64.7895 29.696C64.6464 29.6163 64.5907 29.4012 64.6861 29.218C64.7816 29.0347 64.9804 28.955 65.1236 29.0347C65.2748 29.1224 65.3225 29.3295 65.227 29.5128Z" fill="white"/>
<path d="M65.8797 30.8416C65.8081 30.985 65.6649 31.0488 65.5536 30.993C65.4422 30.9372 65.4183 30.7699 65.482 30.6265C65.5536 30.4831 65.7047 30.4194 65.8161 30.4751C65.9195 30.5389 65.9513 30.6982 65.8797 30.8416Z" fill="white"/>
<path d="M67.9235 36.3626C68.1383 36.0359 68.4485 35.4702 68.0985 35.3108C67.7565 35.1515 67.311 35.7172 67.0645 36.0837L67.9235 36.3626Z" fill="#603A17"/>
<path d="M64.877 35.3671C64.8929 34.9688 64.9804 34.3393 65.3542 34.419C65.7201 34.4907 65.752 35.2078 65.7361 35.654L64.877 35.3671Z" fill="#603A17"/>
<path d="M74.8765 32.9448C74.2322 34.602 72.6095 35.5103 71.2572 34.9844C69.9049 34.4586 69.3322 32.6898 69.9765 31.0326C70.6208 29.3753 72.2435 28.467 73.5958 28.9929C74.9481 29.5267 75.5208 31.2955 74.8765 32.9448Z" fill="url(#paint20_radial)"/>
<path d="M74.1044 33.2649C73.6908 34.0297 72.8397 34.3723 72.2033 34.0297C71.567 33.6951 71.384 32.7948 71.7976 32.0299C72.2113 31.265 73.0624 30.9224 73.6988 31.2571C74.3351 31.5997 74.5181 32.5 74.1044 33.2649Z" fill="url(#paint21_radial)"/>
<path d="M73.8736 33.1923C73.5634 33.7659 72.927 34.0209 72.4498 33.7659C71.9805 33.511 71.8452 32.8497 72.1475 32.276C72.4577 31.7023 73.0861 31.4474 73.5634 31.7023C74.0407 31.9493 74.1759 32.6266 73.8736 33.1923Z" fill="#341718"/>
<path d="M72.8314 32.1328C72.6882 32.324 72.4336 32.3718 72.2746 32.2444C72.1075 32.1169 72.0836 31.8699 72.2268 31.6787C72.37 31.4954 72.6166 31.4396 72.7836 31.5671C72.9507 31.6946 72.9745 31.9496 72.8314 32.1328Z" fill="white"/>
<path d="M73.4042 33.7983C73.2928 33.9418 73.1019 33.9896 72.9826 33.894C72.8633 33.7983 72.8553 33.6071 72.9587 33.4637C73.0701 33.3203 73.261 33.2725 73.3803 33.3681C73.5076 33.4637 73.5155 33.6549 73.4042 33.7983Z" fill="white"/>
<path d="M93.7364 24.6753C93.7364 24.6753 86.1796 14.7319 84.9069 13.3854C84.9069 13.3854 84.366 12.6923 83.7694 12.517C83.1808 12.3417 69.9365 8.77226 68.3535 8.73242C68.3535 8.73242 70.8194 11.8158 74.8524 14.8514L71.424 16.7636C71.424 16.7636 72.6092 20.1976 77.2467 22.2373C81.8842 24.2849 85.2569 24.1973 85.2569 24.1973L85.6387 21.2573C88.3274 22.5799 90.9921 23.7113 93.7364 24.6753Z" fill="url(#paint22_radial)"/>
<path opacity="0.43" d="M87.1974 35.8854C87.1974 35.8854 86.569 35.5109 87.0065 34.7859C87.444 34.0608 88.1838 33.4314 87.5872 33.0888C86.9906 32.7542 85.2486 32.8498 86.9588 31.2722C88.677 29.7026 92.352 29.0015 93.0361 31.0093C93.7202 33.025 89.9815 37.439 87.1974 35.8854Z" fill="url(#paint23_linear)"/>
<path opacity="0.9" d="M64.4475 33.2084C63.0475 31.4556 62.3555 31.4078 61.4327 31.1289L60.6055 31.5273C62.5066 31.3998 64.4475 33.2084 64.4475 33.2084Z" fill="url(#paint24_linear)"/>
<path opacity="0.42" d="M84.6605 38.7863C84.6287 38.9775 84.6128 39.2962 84.4775 39.5591C87.8344 39.9416 90.0775 38.125 90.0775 38.125C88.1207 38.7943 86.1957 38.866 84.6605 38.7863Z" fill="url(#paint25_linear)"/>
<path opacity="0.27" d="M57.1777 36.2754C57.1777 36.2754 63.0402 42.976 70.6527 41.016C70.6527 41.016 62.9527 41.2949 57.1777 36.2754Z" fill="url(#paint26_linear)"/>
<path d="M88.1682 17.4414C87.9853 19.744 87.9535 22.2697 88.558 23.5604L89.1546 23.672C89.1546 23.672 88.3989 22.5406 88.6694 18.0708L88.1682 17.4414Z" fill="url(#paint27_linear)"/>
<path d="M88.3275 25.8951L88.0332 23.9988C88.0332 23.9988 88.1287 23.5766 88.3116 23.5128C88.5025 23.4491 89.0355 23.0905 89.0355 23.0905C89.0355 23.0905 89.4889 22.9471 89.6241 23.234C89.7593 23.5208 90.5389 24.7796 90.5389 24.7796C90.5389 24.7796 90.5548 25.1063 90.3798 25.2099C90.2048 25.3135 88.5264 26.1899 88.3275 25.8951Z" fill="url(#paint28_linear)"/>
<path d="M88.5422 25.9739L88.3115 28.5792C88.3115 28.5792 89.3297 29.0015 90.3081 28.6509C91.2786 28.2924 91.9388 27.7506 91.8513 27.5435C91.7638 27.3443 90.3877 25.209 90.3877 25.209L88.5422 25.9739Z" fill="url(#paint29_linear)"/>
<path d="M88.2802 23.5684L89.2506 25.4168L88.4393 25.7594L88.1768 23.8871L88.2802 23.5684Z" fill="url(#paint30_linear)"/>
<path d="M89.0596 28.7314L89.0993 28.7633C89.2187 28.7792 89.3459 28.7872 89.4812 28.7872L89.0675 26.134L89.0596 28.7314ZM90.038 28.7235C90.1255 28.7075 90.213 28.6836 90.3005 28.6517C90.3641 28.6278 90.4357 28.596 90.4993 28.5721L90.5312 28.5083L89.4414 26.142L90.038 28.7235ZM90.3959 25.8711L91.3266 27.9665L91.3425 28.1339C91.5096 28.0223 91.6369 27.9108 91.7244 27.8152L90.3959 25.8711ZM90.8255 28.4287C90.9687 28.357 91.1119 28.2852 91.2312 28.2056L89.9505 26.1101L90.8255 28.4287Z" fill="url(#paint31_radial)"/>
<path opacity="0.88" d="M88.2645 17.5605C88.2645 17.5605 87.994 20.5802 88.3281 21.855C88.3281 21.855 88.2565 18.7636 88.4156 17.7836L88.2645 17.5605Z" fill="url(#paint32_linear)"/>
<path opacity="0.43" d="M91.8512 27.5444C91.7637 27.3452 90.3876 25.2099 90.3876 25.2099C90.5626 25.1063 90.5467 24.7796 90.5467 24.7796C90.5467 24.7796 89.7672 23.5208 89.6319 23.234C89.4967 22.9471 89.0433 23.0905 89.0433 23.0905C89.0433 23.0905 88.5103 23.4491 88.3194 23.5128C88.1285 23.5766 88.041 23.9988 88.041 23.9988L88.3353 25.8951C88.3751 25.9588 88.4865 25.9588 88.6217 25.9429L88.5421 25.9748L88.3115 28.5801C88.3115 28.5801 89.3297 29.0024 90.3081 28.6518C91.2785 28.2933 91.9308 27.7515 91.8512 27.5444Z" fill="url(#paint33_radial)"/>
<path d="M76.2365 39.6139C72.6013 41.1118 69.1092 41.1198 66.0865 40.4744C65.5854 40.3709 65.1081 40.2354 64.6308 40.1C63.8672 39.8689 63.1592 39.6219 62.499 39.359C62.4911 39.351 62.4831 39.351 62.4751 39.351C62.1808 39.2315 61.9104 39.112 61.6399 38.9845C61.5842 38.9606 61.5206 38.9287 61.4649 38.9048C58.7524 37.638 57.1695 36.2198 56.4774 35.4948C56.4456 35.4709 56.4297 35.4629 56.4297 35.4629C56.4297 35.4629 57.957 37.5583 61.7036 39.3192C61.7592 39.3431 61.8149 39.3749 61.8706 39.3988C62.1331 39.5183 62.4036 39.6379 62.6899 39.7574C62.6979 39.7574 62.7058 39.7653 62.7138 39.7653C63.3501 40.0283 64.0422 40.2752 64.7899 40.4983C65.2513 40.6338 65.7206 40.7613 66.2058 40.8569C69.157 41.4863 72.5695 41.4544 76.1411 39.9326C76.2763 39.8769 76.332 39.7255 76.2763 39.59C76.2683 39.59 76.2524 39.606 76.2365 39.6139Z" fill="#603A17"/>
<path d="M76.2441 38.4824C76.2441 38.4824 75.1225 40.1078 77.2543 40.5699C77.2543 40.5699 75.8623 39.8847 76.2441 38.4824Z" fill="#603A17"/>
<path d="M48.3879 67.4546C48.3799 67.3908 48.364 67.3271 48.3402 67.2633C48.3322 67.2394 48.3243 67.2155 48.3163 67.1996C48.3083 67.1677 48.2924 67.1359 48.2765 67.104C48.2447 67.0243 48.2049 66.9606 48.1652 66.8968C48.1652 66.8968 48.1572 66.8889 48.1493 66.8729C48.1095 66.8092 48.0697 66.7534 48.0379 66.7136C48.0299 66.7056 48.022 66.6897 48.014 66.6817C48.0061 66.6737 48.0061 66.6658 47.9981 66.6658C47.9902 66.6578 47.9902 66.6578 47.9822 66.6498C47.672 66.2196 47.0515 65.3352 46.7015 64.7137C46.6936 64.6978 46.6856 64.6819 46.6697 64.6659C46.6618 64.65 46.6538 64.6261 46.6379 64.6102C46.3515 64.0843 46.1447 63.67 46.1447 63.67C46.1049 63.5744 46.0572 63.4708 46.0174 63.3832C45.6833 62.6502 45.4129 61.9411 45.1902 61.2877C44.6174 59.4632 44.2038 56.6188 44.2038 56.6188C44.1561 56.2523 44.1322 55.9814 44.1243 55.9017C44.0845 55.575 44.0368 55.2803 43.9811 54.9934C43.5993 53.0573 42.8118 51.9977 41.5788 51.7825C41.4356 51.7586 41.3004 51.7427 41.1572 51.7427C40.139 51.7427 39.1208 52.4438 38.1504 53.8302C37.2913 55.0731 36.3606 57.3359 35.8833 58.5708L34.6106 61.957C34.5708 62.0685 34.4515 62.3872 34.1731 62.3872C34.0379 62.3872 33.8549 62.3076 33.7277 61.9172C33.5765 61.3754 33.4493 60.8336 33.3697 60.3555C33.3618 60.3237 32.797 56.9694 31.8981 51.1292C31.4049 47.8864 30.1561 46.1416 28.2072 46.0938C25.6777 46.0938 23.689 49.4401 22.3049 56.0292C20.1572 66.2754 22.7583 72.8645 22.8697 73.1433C23.1004 73.7011 23.6095 74.0915 24.214 74.1632C24.2777 74.1711 24.3333 74.1711 24.397 74.1711C24.6038 74.1711 24.8186 74.1313 25.0174 74.0516C25.8527 73.709 26.2583 72.745 25.9243 71.9084C25.9163 71.8446 23.6254 65.877 25.5504 56.6985C26.2663 53.2724 27.0458 51.4081 27.5868 50.436C27.7061 50.2607 27.8413 50.1731 27.9924 50.1731C28.2947 50.1731 28.422 50.5237 28.4697 50.6591C28.5333 50.93 28.6049 51.2487 28.6606 51.6311C29.5595 57.4713 30.1322 60.8814 30.1402 60.9053C30.5936 63.5585 31.5958 66.7694 33.8311 67.0084C33.9186 67.0164 33.9981 67.0243 34.0856 67.0243C36.2095 67.0243 37.2993 64.1959 37.7049 63.1362L39.0254 59.6225C39.4231 58.5788 39.8527 57.6386 40.147 57.0331C40.2822 56.7542 40.4254 56.6268 40.5924 56.6268C40.7993 56.6268 40.9186 56.7941 40.9424 57.1287C40.9583 57.296 40.9743 57.4554 40.9822 57.6386L40.9902 57.7183C41.0061 57.8776 41.3083 60.7141 42.7799 64.172C42.7958 64.2277 42.8197 64.2835 42.8436 64.3393C42.8436 64.3472 42.8436 64.3472 42.8515 64.3472C42.9629 64.6181 43.122 64.9846 43.3208 65.391C43.8936 66.5941 44.7686 68.3469 45.7152 69.0799H45.7231C45.8424 69.1676 45.9538 69.2472 46.0731 69.311C46.2799 69.3986 46.5027 69.4544 46.7493 69.4544C47.6799 69.4544 48.4356 68.6975 48.4356 67.7653C48.4356 67.6856 48.4277 67.598 48.4197 67.5183C48.3958 67.4864 48.3879 67.4705 48.3879 67.4546ZM55.2527 55.4954C51.4027 55.4954 48.2845 58.6186 48.2845 62.4749C48.2845 66.3311 51.4027 69.4544 55.2527 69.4544C59.1027 69.4544 62.2209 66.3311 62.2209 62.4749C62.2209 58.6186 59.1027 55.4954 55.2527 55.4954ZM58.1959 63.6142C57.1618 64.8811 55.889 65.7017 55.2527 66.0682C54.6163 65.7017 53.3436 64.8731 52.3095 63.6142C50.8697 61.8534 51.7447 59.8058 53.2481 59.8377C54.6561 59.8695 55.2527 61.2399 55.2527 61.2399C55.2527 61.2399 55.2527 61.2399 55.2527 61.232C55.2527 61.2399 55.2527 61.2399 55.2527 61.2399C55.2527 61.2399 55.8493 59.8695 57.2572 59.8377C58.7686 59.8058 59.6356 61.8534 58.1959 63.6142ZM102.495 65.9806C102.479 65.5025 102.28 65.0564 101.938 64.7217C101.707 64.4986 101.421 64.3472 101.119 64.2755C100.991 64.2437 100.864 64.2277 100.729 64.2277C100.236 64.2277 99.7663 64.4349 99.4322 64.7934C98.8038 65.4707 97.9129 65.8611 96.9981 65.8611C96.7595 65.8611 96.5129 65.8292 96.2663 65.7814C95.3993 65.5822 94.6595 65.0484 94.1902 64.2835C93.7209 63.5186 93.5618 62.6183 93.7606 61.7419C94.1027 60.2201 95.4708 59.1206 97.0061 59.1206C97.2606 59.1206 97.5072 59.1524 97.7458 59.2082C98.1674 59.3038 98.5811 59.495 98.9709 59.7739C99.0743 59.8616 99.3924 60.1962 99.2811 60.5229C99.1299 60.9531 98.3186 61.216 96.8708 61.2957L96.8072 61.3037L96.6481 61.3355C96.1311 61.471 95.7652 61.9411 95.7652 62.4829C95.7652 63.1123 96.2504 63.6381 96.8708 63.678H96.9027L97.0777 63.67C97.3243 63.6541 103.02 63.2796 103.139 60.6902V60.5707C103.187 60.0687 103.115 59.5668 102.948 59.0967C102.924 59.0329 102.9 58.9692 102.877 58.9055L102.789 58.7302C102.781 58.7063 102.765 58.6824 102.733 58.6346C102.654 58.4991 102.582 58.3955 102.534 58.3318L102.463 58.2601C101.484 56.9534 100.084 56.0372 98.5254 55.6786C98.0322 55.5591 97.5152 55.5033 96.9981 55.5033C93.8243 55.5033 91.0004 57.782 90.3004 60.9292C89.8947 62.7458 90.2049 64.6102 91.1833 66.1877C92.1618 67.7653 93.6811 68.8648 95.4708 69.2791C95.972 69.3907 96.4811 69.4544 96.9902 69.4544C98.8913 69.4544 100.721 68.6497 102.009 67.2554C102.336 66.9128 102.511 66.4586 102.495 65.9806ZM116.972 55.5432C116.9 55.5352 116.829 55.5352 116.717 55.5352C116.709 55.5352 116.694 55.5352 116.678 55.5352C115.834 55.575 115.142 56.2124 115.039 57.065C114.991 57.4235 114.49 60.6583 111.921 64.0923L111.587 64.5225L111.308 64.7775L111.197 64.419C110.521 62.3076 109.216 59.1684 106.846 56.1726C106.52 55.7583 106.027 55.5193 105.494 55.5272C105.112 55.5272 104.754 55.6547 104.452 55.8937C104.094 56.1806 103.871 56.5869 103.815 57.0331C103.759 57.4872 103.887 57.9334 104.173 58.292C107.236 62.1562 108.222 66.3551 108.333 66.8411L108.461 67.6139L107.952 67.9964L107.808 68.1159L107.792 68.1079C105.311 69.8926 102.312 71.1993 98.8834 71.9881C98.4299 72.0916 98.0481 72.3625 97.8015 72.7609C97.5549 73.1513 97.4754 73.6214 97.5788 74.0676C97.7618 74.8723 98.4618 75.422 99.2811 75.4141H99.3527C99.4561 75.4061 99.5595 75.3981 99.6629 75.3742C116.67 71.4622 118.412 58.037 118.483 57.4713C118.595 56.5232 117.911 55.6627 116.972 55.5432ZM84.4459 61.9092L84.6368 61.7339C85.9731 60.491 87.397 59.4393 88.8765 58.6107C89.6959 58.1485 89.9902 57.1048 89.5368 56.2921C89.2345 55.7503 88.6618 55.4157 88.0413 55.4157C87.7549 55.4157 87.4686 55.4874 87.214 55.6308C85.2652 56.7224 83.4118 58.1326 81.7095 59.8138L81.6777 59.8456L81.6299 59.8616L81.2799 60.0368V57.2721C81.2799 56.316 80.5004 55.5352 79.5459 55.5352C78.5913 55.5352 77.8118 56.316 77.8118 57.2721V67.7016C77.8118 68.6576 78.5913 69.4385 79.5459 69.4385C80.5004 69.4385 81.2799 68.6576 81.2799 67.7016V64.4827L81.3118 64.3393L81.4072 64.2676L81.5583 64.1799H81.622C81.7254 64.1799 81.8288 64.2357 81.9402 64.3313L87.9777 70.0281C88.3038 70.3308 88.7254 70.4981 89.1629 70.4981C89.6402 70.4981 90.1015 70.299 90.4277 69.9484C90.7459 69.6138 90.9129 69.1755 90.897 68.7055C90.8811 68.2433 90.6902 67.8131 90.3561 67.4944L84.4459 61.9092ZM74.2243 55.5352C73.2697 55.5352 72.4902 56.316 72.4902 57.2721V63.909L72.0447 63.184C70.9152 61.3515 68.9186 58.1406 68.2902 57.2243C68.0038 56.802 67.1447 55.5272 65.8799 55.5272C65.6811 55.5272 65.4822 55.5591 65.2834 55.6229C63.6686 56.1168 63.6527 58.045 63.6527 59.272L63.6368 67.6936C63.6368 68.6497 64.4163 69.4305 65.3708 69.4305C66.3254 69.4305 67.1049 68.6497 67.1049 67.6936V61.8136L67.5504 62.5307C68.8311 64.5863 70.2311 66.865 70.2709 66.9207C71.297 68.57 72.4186 69.4385 73.5243 69.4385C73.7072 69.4385 73.9061 69.4146 74.1049 69.3588C75.2822 69.0321 75.9106 67.9167 75.9584 66.0523V57.2721C75.9584 56.3081 75.1788 55.5352 74.2243 55.5352Z" fill="#EE202E"/>
<path d="M44.3179 88.5424C44.3179 89.1696 44.8174 89.6714 45.4418 89.6714C46.0662 89.6714 46.5813 89.1696 46.5813 88.5424V82.631H47.9238C48.5326 82.631 49.0321 82.1293 49.0321 81.5178C49.0321 80.9062 48.5326 80.4202 47.9238 80.4202H42.9911C42.3823 80.4202 41.8828 80.9062 41.8828 81.5178C41.8828 82.1293 42.3823 82.631 42.9911 82.631H44.3179V88.5424Z" fill="#EE202E"/>
<path d="M52.3109 84.591V82.631H54.0748C54.465 82.631 54.9333 82.8192 54.9333 83.6032C54.9333 84.5283 54.4338 84.591 54.0748 84.591H52.3109ZM54.9021 88.9344C55.0426 89.3734 55.4484 89.6714 55.9479 89.6714C56.5879 89.6714 57.0874 89.1853 57.0874 88.5581C57.0874 88.4013 57.0562 88.2602 57.0094 88.119L56.7752 87.4448C56.5723 86.849 56.3382 86.1904 55.9323 85.7984C56.7909 85.4378 57.1967 84.5597 57.1967 83.5562C57.1967 81.2669 55.464 80.4202 54.1216 80.4202H51.1713C50.547 80.4202 50.0474 80.9376 50.0474 81.5648V88.5267C50.0474 89.1539 50.547 89.6714 51.1713 89.6714C51.7957 89.6714 52.3109 89.1539 52.3109 88.5267V86.8019H53.5909C53.9655 86.8019 54.2777 87.1155 54.543 87.8838L54.9021 88.9344Z" fill="#EE202E"/>
<path d="M62.676 87.5546C61.8487 87.5546 60.5218 87.1469 60.5218 84.9674C60.5218 83.0387 61.6457 82.537 62.676 82.537C63.7374 82.537 64.8613 83.0387 64.8613 84.9674C64.8613 87.1469 63.5345 87.5546 62.676 87.5546ZM62.676 89.7654C64.3774 89.7654 67.1248 88.8717 67.1248 84.9203C67.1248 81.5491 64.7208 80.3261 62.6916 80.3261C60.6623 80.3261 58.2584 81.5491 58.2584 84.9203C58.2584 88.8717 61.0057 89.7654 62.676 89.7654ZM62.676 90.2201C63.2691 90.2201 63.7374 90.6905 63.7374 91.2707C63.7374 91.8509 63.2691 92.3056 62.676 92.3056C62.0984 92.3056 61.6457 91.8509 61.6457 91.2707C61.6457 90.6905 62.0984 90.2201 62.676 90.2201Z" fill="#EE202E"/>
<path d="M73.7422 89.0755C73.9919 89.4362 74.4134 89.6714 74.8817 89.6714C75.6466 89.6714 76.1773 89.0442 76.1773 88.2758V81.5648C76.1773 80.9376 75.6778 80.4202 75.0534 80.4202C74.429 80.4202 73.9139 80.9376 73.9139 81.5648V85.4378L70.8076 81.016C70.5578 80.6554 70.1363 80.4202 69.668 80.4202C68.9032 80.4202 68.2944 81.0474 68.2944 81.8157V88.5267C68.2944 89.1539 68.7939 89.6714 69.4183 89.6714C70.0427 89.6714 70.5578 89.1539 70.5578 88.5267V84.591L73.7422 89.0755Z" fill="#EE202E"/>
<path d="M82.8444 83.9638V82.631H84.218C84.6083 82.631 85.0766 82.7722 85.0766 83.2582C85.0766 83.9011 84.5927 83.9638 84.218 83.9638H82.8444ZM82.8444 87.4605V86.1277H84.6239C85.0297 86.1277 85.4824 86.2688 85.4824 86.7549C85.4824 87.3821 84.9985 87.4605 84.6239 87.4605H82.8444ZM81.7049 80.4202C81.0805 80.4202 80.581 80.9376 80.581 81.5648V88.5267C80.581 89.1539 81.0805 89.6714 81.7049 89.6714H84.5302C87.0434 89.6714 87.7458 87.9779 87.7458 86.896C87.7458 85.8925 87.3244 85.1555 86.7312 84.8576C87.1683 84.4342 87.34 83.7757 87.34 83.2269C87.34 80.9376 85.6073 80.4202 84.2649 80.4202H81.7049Z" fill="#EE202E"/>
<path d="M93.0266 87.5546C92.1992 87.5546 90.8724 87.1469 90.8724 84.9674C90.8724 83.0387 91.9963 82.537 93.0266 82.537C94.088 82.537 95.2119 83.0387 95.2119 84.9674C95.2119 87.1469 93.8851 87.5546 93.0266 87.5546ZM93.0266 89.7654C94.728 89.7654 97.4753 88.8717 97.4753 84.9203C97.4753 81.5491 95.0714 80.3261 93.0422 80.3261C91.0129 80.3261 88.609 81.5491 88.609 84.9203C88.609 88.8717 91.3563 89.7654 93.0266 89.7654ZM93.5573 79.6205C93.6822 79.8557 93.8851 79.9968 94.1349 79.9968C94.4471 79.9968 94.728 79.7302 94.728 79.401C94.728 79.3069 94.6968 79.2128 94.6656 79.1344L94.1661 78.2406C93.9475 77.8486 93.5573 77.5664 93.089 77.5664C92.6363 77.5664 92.2461 77.8486 92.0275 78.2406L91.528 79.1344C91.4968 79.2128 91.4656 79.3069 91.4656 79.401C91.4656 79.7302 91.7466 79.9968 92.0588 79.9968C92.3085 79.9968 92.5114 79.8557 92.6363 79.6205L93.089 78.7738L93.5573 79.6205ZM93.0266 90.2201C92.449 90.2201 91.9963 90.6905 91.9963 91.2707C91.9963 91.8509 92.449 92.3056 93.0266 92.3056C93.6197 92.3056 94.088 91.8509 94.088 91.2707C94.088 90.6905 93.6197 90.2201 93.0266 90.2201Z" fill="#EE202E"/>
<defs>
<radialGradient id="paint0_radial" cx="0" cy="0" r="1" gradientUnits="userSpaceOnUse" gradientTransform="translate(57.7834 25.314) rotate(85.3733) scale(5.24004 3.09713)">
<stop offset="0.3939" stop-color="white"/>
<stop offset="0.4187" stop-color="#FFFAF6"/>
<stop offset="0.567" stop-color="#FEEBD9"/>
<stop offset="0.7146" stop-color="#FDE1C6"/>
<stop offset="0.8598" stop-color="#FDDBBB"/>
<stop offset="1" stop-color="#FCD9B7"/>
</radialGradient>
<linearGradient id="paint1_linear" x1="47.8692" y1="22.6437" x2="62.6187" y2="27.0872" gradientUnits="userSpaceOnUse">
<stop offset="0.635" stop-color="white" stop-opacity="0"/>
<stop offset="0.6659" stop-color="#FFF1E9" stop-opacity="0.0893"/>
<stop offset="0.7256" stop-color="#FDD5C0" stop-opacity="0.2616"/>
<stop offset="0.8072" stop-color="#F9AA85" stop-opacity="0.4972"/>
<stop offset="0.8606" stop-color="#F68D62" stop-opacity="0.6512"/>
<stop offset="0.8954" stop-color="#DC7B4D" stop-opacity="0.7259"/>
<stop offset="0.9329" stop-color="#CC703E" stop-opacity="0.8063"/>
<stop offset="0.9685" stop-color="#C26A36" stop-opacity="0.8826"/>
<stop offset="1" stop-color="#BF6834" stop-opacity="0.95"/>
</linearGradient>
<linearGradient id="paint2_linear" x1="84.3815" y1="37.3359" x2="80.0239" y2="42.8191" gradientUnits="userSpaceOnUse">
<stop stop-color="#A91F27"/>
<stop offset="0.1913" stop-color="#AE1F27"/>
<stop offset="0.3892" stop-color="#BC2028"/>
<stop offset="0.5791" stop-color="#D42029"/>
<stop offset="0.7394" stop-color="#EB2227"/>
</linearGradient>
<radialGradient id="paint3_radial" cx="0" cy="0" r="1" gradientUnits="userSpaceOnUse" gradientTransform="translate(63.3297 16.1466) rotate(16.8172) scale(17.2042 17.2274)">
<stop stop-color="white"/>
<stop offset="0.1049" stop-color="#FCD4C4"/>
<stop offset="0.2345" stop-color="#F7A990"/>
<stop offset="0.3658" stop-color="#F3876B"/>
<stop offset="0.4961" stop-color="#F06A50"/>
<stop offset="0.6254" stop-color="#EE503B"/>
<stop offset="0.7531" stop-color="#EC3A2F"/>
<stop offset="0.8788" stop-color="#EB2929"/>
<stop offset="1" stop-color="#EB2227"/>
</radialGradient>
<radialGradient id="paint4_radial" cx="0" cy="0" r="1" gradientUnits="userSpaceOnUse" gradientTransform="translate(63.4575 30.6523) rotate(16.8172) scale(14.4812 14.5008)">
<stop offset="0.3939" stop-color="white"/>
<stop offset="0.4187" stop-color="#FFFAF6"/>
<stop offset="0.567" stop-color="#FEEBD9"/>
<stop offset="0.7146" stop-color="#FDE1C6"/>
<stop offset="0.8598" stop-color="#FDDBBB"/>
<stop offset="1" stop-color="#FCD9B7"/>
</radialGradient>
<linearGradient id="paint5_linear" x1="86.4766" y1="27.3508" x2="80.9869" y2="26.4802" gradientUnits="userSpaceOnUse">
<stop stop-color="#AE1F28"/>
<stop offset="0.2066" stop-color="#B21F28"/>
<stop offset="0.4204" stop-color="#C12029"/>
<stop offset="0.5791" stop-color="#D42029"/>
<stop offset="0.7394" stop-color="#EB2227"/>
</linearGradient>
<radialGradient id="paint6_radial" cx="0" cy="0" r="1" gradientUnits="userSpaceOnUse" gradientTransform="translate(89.3241 30.8387) rotate(16.8172) scale(8.49034 8.50183)">
<stop offset="0.3939" stop-color="white"/>
<stop offset="0.4187" stop-color="#FFFAF6"/>
<stop offset="0.567" stop-color="#FEEBD9"/>
<stop offset="0.7146" stop-color="#FDE1C6"/>
<stop offset="0.8598" stop-color="#FDDBBB"/>
<stop offset="1" stop-color="#FCD9B7"/>
</radialGradient>
<radialGradient id="paint7_radial" cx="0" cy="0" r="1" gradientUnits="userSpaceOnUse" gradientTransform="translate(87.475 32.0885) rotate(16.8172) scale(8.24178 8.25295)">
<stop offset="0.635" stop-color="white" stop-opacity="0"/>
<stop offset="0.6659" stop-color="#FFF1E9" stop-opacity="0.0893"/>
<stop offset="0.7256" stop-color="#FDD5C0" stop-opacity="0.2616"/>
<stop offset="0.8072" stop-color="#F9AA85" stop-opacity="0.4972"/>
<stop offset="0.8606" stop-color="#F68D62" stop-opacity="0.6512"/>
<stop offset="0.8954" stop-color="#DC7B4D" stop-opacity="0.7259"/>
<stop offset="0.9329" stop-color="#CC703E" stop-opacity="0.8063"/>
<stop offset="0.9685" stop-color="#C26A36" stop-opacity="0.8826"/>
<stop offset="1" stop-color="#BF6834" stop-opacity="0.95"/>
</radialGradient>
<linearGradient id="paint8_linear" x1="67.6444" y1="10.3833" x2="90.3162" y2="17.2135" gradientUnits="userSpaceOnUse">
<stop stop-color="#929497"/>
<stop offset="0.0471" stop-color="#8A8B8D"/>
<stop offset="0.2414" stop-color="#6E6E6F"/>
<stop offset="0.4358" stop-color="#5A595A"/>
<stop offset="0.6281" stop-color="#4C4B4C"/>
<stop offset="0.8174" stop-color="#444444"/>
<stop offset="1" stop-color="#414142"/>
</linearGradient>
<linearGradient id="paint9_linear" x1="75.0474" y1="14.5425" x2="76.9376" y2="16.6209" gradientUnits="userSpaceOnUse">
<stop stop-color="white"/>
<stop offset="0.0432" stop-color="#E7E6E6"/>
<stop offset="0.2054" stop-color="#B3B0B1"/>
<stop offset="0.3687" stop-color="#8F8C8D"/>
<stop offset="0.5305" stop-color="#767475"/>
<stop offset="0.6906" stop-color="#656566"/>
<stop offset="0.848" stop-color="#5C5C5E"/>
<stop offset="1" stop-color="#595A5C"/>
</linearGradient>
<linearGradient id="paint10_linear" x1="83.0939" y1="21.5746" x2="88.7706" y2="19.3206" gradientUnits="userSpaceOnUse">
<stop stop-color="#414142"/>
<stop offset="0.121" stop-color="#464647"/>
<stop offset="0.4199" stop-color="#515153"/>
<stop offset="0.7151" stop-color="#57585A"/>
<stop offset="1" stop-color="#595A5C"/>
</linearGradient>
<linearGradient id="paint11_linear" x1="90.9487" y1="23.1852" x2="84.1464" y2="17.2864" gradientUnits="userSpaceOnUse">
<stop stop-color="#414142"/>
<stop offset="0.121" stop-color="#464647"/>
<stop offset="0.4199" stop-color="#515153"/>
<stop offset="0.7151" stop-color="#57585A"/>
<stop offset="1" stop-color="#595A5C"/>
</linearGradient>
<radialGradient id="paint12_radial" cx="0" cy="0" r="1" gradientUnits="userSpaceOnUse" gradientTransform="translate(75.6605 42.8365) rotate(16.9497) scale(4.49734 4.45727)">
<stop offset="0.3939" stop-color="white"/>
<stop offset="0.4187" stop-color="#FFFAF6"/>
<stop offset="0.567" stop-color="#FEEBD9"/>
<stop offset="0.7146" stop-color="#FDE1C6"/>
<stop offset="0.8598" stop-color="#FDDBBB"/>
<stop offset="1" stop-color="#FCD9B7"/>
</radialGradient>
<radialGradient id="paint13_radial" cx="0" cy="0" r="1" gradientUnits="userSpaceOnUse" gradientTransform="translate(74.4187 36.8482) rotate(-140.813) scale(3.43064 2.76693)">
<stop offset="0.3939" stop-color="white"/>
<stop offset="0.4187" stop-color="#FFFAF6"/>
<stop offset="0.567" stop-color="#FEEBD9"/>
<stop offset="0.7146" stop-color="#FDE1C6"/>
<stop offset="0.8598" stop-color="#FDDBBB"/>
<stop offset="1" stop-color="#FCD9B7"/>
</radialGradient>
<radialGradient id="paint14_radial" cx="0" cy="0" r="1" gradientUnits="userSpaceOnUse" gradientTransform="translate(68.227 34.0933) rotate(16.9496) scale(13.7494 13.7824)">
<stop offset="0.635" stop-color="white" stop-opacity="0"/>
<stop offset="0.6659" stop-color="#FFF1E9" stop-opacity="0.0893"/>
<stop offset="0.7256" stop-color="#FDD5C0" stop-opacity="0.2616"/>
<stop offset="0.8072" stop-color="#F9AA85" stop-opacity="0.4972"/>
<stop offset="0.8606" stop-color="#F68D62" stop-opacity="0.6512"/>
<stop offset="0.8954" stop-color="#DC7B4D" stop-opacity="0.7259"/>
<stop offset="0.9329" stop-color="#CC703E" stop-opacity="0.8063"/>
<stop offset="0.9685" stop-color="#C26A36" stop-opacity="0.8826"/>
<stop offset="1" stop-color="#BF6834" stop-opacity="0.95"/>
</radialGradient>
<radialGradient id="paint15_radial" cx="0" cy="0" r="1" gradientUnits="userSpaceOnUse" gradientTransform="translate(72.7728 32.1652) rotate(16.8172) scale(3.01013 3.53837)">
<stop offset="0.8061" stop-color="white"/>
<stop offset="0.828" stop-color="#F8F8F8"/>
<stop offset="0.9154" stop-color="#EBEBEB"/>
<stop offset="1" stop-color="#E7E7E7"/>
</radialGradient>
<linearGradient id="paint16_linear" x1="69.7333" y1="31.1185" x2="75.0967" y2="32.7181" gradientUnits="userSpaceOnUse">
<stop stop-color="#914F37"/>
<stop offset="0.162" stop-color="#93523A"/>
<stop offset="0.3298" stop-color="#9A5C42"/>
<stop offset="0.5004" stop-color="#A76C51"/>
<stop offset="0.6728" stop-color="#BA8467"/>
<stop offset="0.845" stop-color="#D6A888"/>
<stop offset="1" stop-color="#FCD9B7"/>
</linearGradient>
<linearGradient id="paint17_linear" x1="62.9383" y1="28.1443" x2="67.1345" y2="29.9771" gradientUnits="userSpaceOnUse">
<stop stop-color="#914F37"/>
<stop offset="0.162" stop-color="#93523A"/>
<stop offset="0.3298" stop-color="#9A5C42"/>
<stop offset="0.5004" stop-color="#A76C51"/>
<stop offset="0.6728" stop-color="#BA8467"/>
<stop offset="0.845" stop-color="#D6A888"/>
<stop offset="1" stop-color="#FCD9B7"/>
</linearGradient>
<radialGradient id="paint18_radial" cx="0" cy="0" r="1" gradientUnits="userSpaceOnUse" gradientTransform="translate(65.2017 29.5581) rotate(6.79187) scale(2.4372 3.08534)">
<stop offset="0.8061" stop-color="white"/>
<stop offset="0.828" stop-color="#F8F8F8"/>
<stop offset="0.9154" stop-color="#EBEBEB"/>
<stop offset="1" stop-color="#E7E7E7"/>
</radialGradient>
<radialGradient id="paint19_radial" cx="0" cy="0" r="1" gradientUnits="userSpaceOnUse" gradientTransform="translate(65.4214 29.9371) rotate(110.691) scale(1.8615 1.28739)">
<stop offset="0.6485" stop-color="#914F37"/>
<stop offset="0.6844" stop-color="#7C4533"/>
<stop offset="0.7487" stop-color="#60352B"/>
<stop offset="0.8131" stop-color="#4D2924"/>
<stop offset="0.8768" stop-color="#3F201E"/>
<stop offset="0.9395" stop-color="#371A1A"/>
<stop offset="1" stop-color="#341718"/>
</radialGradient>
<radialGradient id="paint20_radial" cx="0" cy="0" r="1" gradientUnits="userSpaceOnUse" gradientTransform="translate(72.7728 32.1652) rotate(16.8172) scale(3.01013 3.53837)">
<stop offset="0.8061" stop-color="white"/>
<stop offset="0.828" stop-color="#F8F8F8"/>
<stop offset="0.9154" stop-color="#EBEBEB"/>
<stop offset="1" stop-color="#E7E7E7"/>
</radialGradient>
<radialGradient id="paint21_radial" cx="0" cy="0" r="1" gradientUnits="userSpaceOnUse" gradientTransform="translate(72.9594 32.6273) rotate(120.271) scale(2.12987 1.59242)">
<stop offset="0.6485" stop-color="#914F37"/>
<stop offset="0.6844" stop-color="#7C4533"/>
<stop offset="0.7487" stop-color="#60352B"/>
<stop offset="0.8131" stop-color="#4D2924"/>
<stop offset="0.8768" stop-color="#3F201E"/>
<stop offset="0.9395" stop-color="#371A1A"/>
<stop offset="1" stop-color="#341718"/>
</radialGradient>
<radialGradient id="paint22_radial" cx="0" cy="0" r="1" gradientUnits="userSpaceOnUse" gradientTransform="translate(78.8562 13.3338) rotate(16.8172) scale(16.9513 16.9743)">
<stop stop-color="white" stop-opacity="0"/>
<stop offset="0.1876" stop-color="#ECECEC" stop-opacity="0.142"/>
<stop offset="0.5474" stop-color="#C8C8C9" stop-opacity="0.4142"/>
<stop offset="0.8606" stop-color="#A6A8AC" stop-opacity="0.6512"/>
<stop offset="0.8713" stop-color="#909092" stop-opacity="0.6742"/>
<stop offset="0.8946" stop-color="#6B696A" stop-opacity="0.724"/>
<stop offset="0.9176" stop-color="#4F4C4D" stop-opacity="0.7734"/>
<stop offset="0.94" stop-color="#3C3839" stop-opacity="0.8214"/>
<stop offset="0.9616" stop-color="#2E2B2B" stop-opacity="0.8677"/>
<stop offset="0.982" stop-color="#262223" stop-opacity="0.9114"/>
<stop offset="1" stop-color="#231F20" stop-opacity="0.95"/>
</radialGradient>
<linearGradient id="paint23_linear" x1="85.7915" y1="31.8053" x2="92.014" y2="33.68" gradientUnits="userSpaceOnUse">
<stop offset="0.635" stop-color="white" stop-opacity="0"/>
<stop offset="0.6659" stop-color="#FFF1E9" stop-opacity="0.0893"/>
<stop offset="0.7256" stop-color="#FDD5C0" stop-opacity="0.2616"/>
<stop offset="0.8072" stop-color="#F9AA85" stop-opacity="0.4972"/>
<stop offset="0.8606" stop-color="#F68D62" stop-opacity="0.6512"/>
<stop offset="0.8954" stop-color="#DC7B4D" stop-opacity="0.7259"/>
<stop offset="0.9329" stop-color="#CC703E" stop-opacity="0.8063"/>
<stop offset="0.9685" stop-color="#C26A36" stop-opacity="0.8826"/>
<stop offset="1" stop-color="#BF6834" stop-opacity="0.95"/>
</linearGradient>
<linearGradient id="paint24_linear" x1="60.5626" y1="31.8213" x2="64.5673" y2="32.4044" gradientUnits="userSpaceOnUse">
<stop offset="0.3939" stop-color="white"/>
<stop offset="0.4187" stop-color="#FFFAF6"/>
<stop offset="0.567" stop-color="#FEEBD9"/>
<stop offset="0.7146" stop-color="#FDE1C6"/>
<stop offset="0.8598" stop-color="#FDDBBB"/>
<stop offset="1" stop-color="#FCD9B7"/>
</linearGradient>
<linearGradient id="paint25_linear" x1="87.4158" y1="38.3548" x2="86.3574" y2="40.6135" gradientUnits="userSpaceOnUse">
<stop offset="0.3939" stop-color="white"/>
<stop offset="0.4062" stop-color="#FFFAF7"/>
<stop offset="0.5273" stop-color="#FDE3D0"/>
<stop offset="0.6484" stop-color="#FCD2B5"/>
<stop offset="0.7683" stop-color="#FBC6A2"/>
<stop offset="0.8862" stop-color="#FABF97"/>
<stop offset="1" stop-color="#FABC93"/>
</linearGradient>
<linearGradient id="paint26_linear" x1="63.5041" y1="39.8035" x2="62.8972" y2="41.4698" gradientUnits="userSpaceOnUse">
<stop stop-color="#914F37"/>
<stop offset="0.162" stop-color="#93523A"/>
<stop offset="0.3298" stop-color="#9A5C42"/>
<stop offset="0.5004" stop-color="#A76C51"/>
<stop offset="0.6728" stop-color="#BA8467"/>
<stop offset="0.845" stop-color="#D6A888"/>
<stop offset="1" stop-color="#FCD9B7"/>
</linearGradient>
<linearGradient id="paint27_linear" x1="87.3391" y1="20.1912" x2="89.9657" y2="20.9825" gradientUnits="userSpaceOnUse">
<stop stop-color="#FECF0A"/>
<stop offset="0.0671" stop-color="#FDC810"/>
<stop offset="0.3051" stop-color="#FAB31A"/>
<stop offset="0.5419" stop-color="#F8A41E"/>
<stop offset="0.775" stop-color="#F79B20"/>
<stop offset="1" stop-color="#F79820"/>
</linearGradient>
<linearGradient id="paint28_linear" x1="89.0849" y1="24.4611" x2="90.6629" y2="24.1186" gradientUnits="userSpaceOnUse">
<stop stop-color="#FECF0A"/>
<stop offset="0.0671" stop-color="#FDC810"/>
<stop offset="0.3051" stop-color="#FAB31A"/>
<stop offset="0.5419" stop-color="#F8A41E"/>
<stop offset="0.775" stop-color="#F79B20"/>
<stop offset="1" stop-color="#F79820"/>
</linearGradient>
<linearGradient id="paint29_linear" x1="88.351" y1="26.5985" x2="91.8418" y2="27.6502" gradientUnits="userSpaceOnUse">
<stop offset="0.00606061" stop-color="white"/>
<stop offset="0.3152" stop-color="#FECF0A"/>
<stop offset="0.3611" stop-color="#FDC810"/>
<stop offset="0.5241" stop-color="#FAB31A"/>
<stop offset="0.6863" stop-color="#F8A41E"/>
<stop offset="0.8459" stop-color="#F79B20"/>
<stop offset="1" stop-color="#F79820"/>
</linearGradient>
<linearGradient id="paint30_linear" x1="88.2249" y1="24.6225" x2="89.6288" y2="25.0455" gradientUnits="userSpaceOnUse">
<stop stop-color="white"/>
<stop offset="0.1067" stop-color="#FFF2D1"/>
<stop offset="0.236" stop-color="#FFE7A6"/>
<stop offset="0.3671" stop-color="#FFDE82"/>
<stop offset="0.4972" stop-color="#FFD761"/>
<stop offset="0.6261" stop-color="#FFD242"/>
<stop offset="0.7536" stop-color="#FFCE28"/>
<stop offset="0.8791" stop-color="#FFCC12"/>
<stop offset="1" stop-color="#FFCB09"/>
</linearGradient>
<radialGradient id="paint31_radial" cx="0" cy="0" r="1" gradientUnits="userSpaceOnUse" gradientTransform="translate(89.3253 27.0413) rotate(16.8171) scale(5.09907 5.10595)">
<stop offset="0.103" stop-color="white"/>
<stop offset="0.1418" stop-color="#FFF2D1"/>
<stop offset="0.1888" stop-color="#FFE7A6"/>
<stop offset="0.2365" stop-color="#FFDE82"/>
<stop offset="0.2838" stop-color="#FFD761"/>
<stop offset="0.3307" stop-color="#FFD242"/>
<stop offset="0.3771" stop-color="#FFCE28"/>
<stop offset="0.4227" stop-color="#FFCC12"/>
<stop offset="0.4667" stop-color="#FFCB09"/>
</radialGradient>
<linearGradient id="paint32_linear" x1="87.6747" y1="19.5162" x2="88.9207" y2="19.8916" gradientUnits="userSpaceOnUse">
<stop stop-color="white"/>
<stop offset="0.1067" stop-color="#FFF2D1"/>
<stop offset="0.236" stop-color="#FFE7A6"/>
<stop offset="0.3671" stop-color="#FFDE82"/>
<stop offset="0.4972" stop-color="#FFD761"/>
<stop offset="0.6261" stop-color="#FFD242"/>
<stop offset="0.7536" stop-color="#FFCE28"/>
<stop offset="0.8791" stop-color="#FFCC12"/>
<stop offset="1" stop-color="#FFCB09"/>
</linearGradient>
<radialGradient id="paint33_radial" cx="0" cy="0" r="1" gradientUnits="userSpaceOnUse" gradientTransform="translate(88.4244 26.3663) rotate(16.8172) scale(3.03543 3.03954)">
<stop offset="0.635" stop-color="white" stop-opacity="0"/>
<stop offset="0.6565" stop-color="#FFF5EB" stop-opacity="0.0621"/>
<stop offset="0.698" stop-color="#FEE2C6" stop-opacity="0.1819"/>
<stop offset="0.7553" stop-color="#FDC48E" stop-opacity="0.3474"/>
<stop offset="0.8255" stop-color="#F99D47" stop-opacity="0.55"/>
<stop offset="0.8606" stop-color="#F68A20" stop-opacity="0.6512"/>
<stop offset="0.89" stop-color="#F47B22" stop-opacity="0.7143"/>
<stop offset="0.9295" stop-color="#F26A24" stop-opacity="0.7988"/>
<stop offset="0.9669" stop-color="#F15E24" stop-opacity="0.8791"/>
<stop offset="1" stop-color="#F15A25" stop-opacity="0.95"/>
</radialGradient>
</defs>
</svg>
