<svg width="44" height="44" viewBox="0 0 44 44" fill="none" xmlns="http://www.w3.org/2000/svg">
<circle cx="22" cy="22" r="22" fill="#EDF6DF"/>
<g clip-path="url(#clip0)">
<path d="M22.927 16.9802L22 17.213L13.1484 14.9919V12.0469C13.1484 11.6909 13.437 11.4023 13.793 11.4023C17.0989 11.4023 19.3053 12.7119 20.5741 13.8104C21.9578 15.0085 22.5547 16.2155 22.5794 16.2663L22.927 16.9802Z" fill="#D3D2D3"/>
<path d="M30.2069 11.4023C26.901 11.4023 24.6946 12.7119 23.4258 13.8104C22.7923 14.3589 22.3242 14.9089 22 15.3493V17.213L30.8515 14.9919V12.0469C30.8515 11.6909 30.5629 11.4023 30.2069 11.4023Z" fill="#E9E9E9"/>
<path d="M22 32.5969C21.9023 32.5969 21.8045 32.5747 21.7142 32.53C21.6526 32.4999 17.4109 30.4484 11.6445 30.4484C11.2886 30.4484 11 30.1599 11 29.8039V14.4004C11 14.0444 11.2886 13.7559 11.6445 13.7559C17.7407 13.7559 22.1032 15.8807 22.286 15.9712C22.5056 16.0799 22.6445 16.3038 22.6445 16.5488V31.9523C22.6445 32.1753 22.5293 32.3824 22.3399 32.4999C22.2362 32.5643 22.1182 32.5969 22 32.5969Z" fill="#F9F9F9"/>
<path d="M32.3555 13.7559C26.746 13.7559 23.0625 15.3123 22 15.8258V32.5969C22.1076 32.5969 22.2154 32.5699 22.3127 32.5159C22.3499 32.4953 26.1113 30.4484 32.3555 30.4484C32.7114 30.4484 33 30.1599 33 29.8039V14.4004C33 14.0444 32.7114 13.7559 32.3555 13.7559Z" fill="#E9E9E9"/>
<path d="M24.5781 29.0611C24.3032 29.0611 24.0486 28.8839 23.9628 28.6076C23.8572 28.2677 24.0471 27.9065 24.387 27.8009C26.0534 27.283 27.8472 26.9343 29.7188 26.7644C30.073 26.7322 30.3868 26.9935 30.4189 27.348C30.4511 27.7025 30.1898 28.016 29.8353 28.0482C28.0538 28.2099 26.3495 28.5409 24.7695 29.0319C24.7059 29.0516 24.6414 29.0611 24.5781 29.0611Z" fill="#606A70"/>
<path d="M24.5781 26.4829C24.3032 26.4829 24.0486 26.3058 23.9628 26.0295C23.8572 25.6896 24.0471 25.3284 24.387 25.2228C26.0534 24.7049 27.8472 24.3562 29.7188 24.1863C30.073 24.1539 30.3868 24.4154 30.4189 24.7699C30.4511 25.1244 30.1898 25.4379 29.8353 25.4701C28.0538 25.6318 26.3495 25.9628 24.7695 26.4538C24.7059 26.4735 24.6414 26.4829 24.5781 26.4829Z" fill="#606A70"/>
<path d="M24.5781 23.9048C24.3032 23.9048 24.0486 23.7276 23.9628 23.4514C23.8572 23.1115 24.0471 22.7503 24.387 22.6446C26.0534 22.1267 27.8472 21.778 29.7188 21.6081C30.073 21.576 30.3868 21.8373 30.4189 22.1918C30.4511 22.5463 30.1898 22.8597 29.8353 22.8919C28.0538 23.0537 26.3495 23.3846 24.7695 23.8756C24.7059 23.8954 24.6414 23.9048 24.5781 23.9048Z" fill="#606A70"/>
<path d="M24.5781 21.3267C24.3032 21.3267 24.0486 21.1495 23.9628 20.8733C23.8572 20.5334 24.0471 20.1722 24.387 20.0665C26.0534 19.5486 27.8472 19.2 29.7188 19.0301C30.073 18.9977 30.3868 19.2591 30.4189 19.6137C30.4511 19.9682 30.1898 20.2816 29.8353 20.3138C28.0538 20.4756 26.3495 20.8065 24.7695 21.2975C24.7059 21.3173 24.6414 21.3267 24.5781 21.3267Z" fill="#606A70"/>
<path d="M24.5781 18.7485C24.3032 18.7485 24.0486 18.5714 23.9628 18.2951C23.8572 17.9552 24.0471 17.594 24.387 17.4884C26.0534 16.9705 27.8472 16.6218 29.7188 16.4519C30.073 16.4197 30.3868 16.681 30.4189 17.0356C30.4511 17.39 30.1898 17.7035 29.8353 17.7357C28.0538 17.8974 26.3495 18.2284 24.7695 18.7194C24.7059 18.7391 24.6414 18.7485 24.5781 18.7485Z" fill="#606A70"/>
<path d="M19.4002 29.0611C19.3368 29.0611 19.2724 29.0517 19.2087 29.0319C17.6288 28.5409 15.9245 28.2099 14.143 28.0482C13.7885 28.016 13.5271 27.7026 13.5593 27.3481C13.5915 26.9935 13.9052 26.7321 14.2595 26.7644C16.1311 26.9343 17.925 27.283 19.5912 27.8009C19.9312 27.9065 20.1211 28.2677 20.0155 28.6077C19.9296 28.8839 19.675 29.0611 19.4002 29.0611Z" fill="#606A70"/>
<path d="M19.4002 26.483C19.3368 26.483 19.2724 26.4736 19.2087 26.4537C17.6288 25.9627 15.9245 25.6318 14.143 25.4701C13.7885 25.4379 13.5271 25.1244 13.5593 24.7699C13.5915 24.4154 13.9052 24.1541 14.2595 24.1863C16.1311 24.3562 17.925 24.7049 19.5912 25.2227C19.9312 25.3284 20.1211 25.6896 20.0155 26.0295C19.9296 26.3058 19.675 26.483 19.4002 26.483Z" fill="#606A70"/>
<path d="M19.4002 23.9049C19.3368 23.9049 19.2724 23.8955 19.2087 23.8757C17.6288 23.3846 15.9245 23.0537 14.143 22.892C13.7885 22.8598 13.5271 22.5463 13.5593 22.1918C13.5915 21.8373 13.9052 21.5757 14.2595 21.6082C16.1311 21.7781 17.925 22.1268 19.5912 22.6446C19.9312 22.7503 20.1211 23.1115 20.0155 23.4514C19.9296 23.7277 19.675 23.9049 19.4002 23.9049Z" fill="#606A70"/>
<path d="M19.3999 21.3265C19.3358 21.3265 19.2714 21.3169 19.2087 21.2974C17.6288 20.8064 15.9244 20.4755 14.1429 20.3138C13.8109 20.2836 13.5566 20.0052 13.5566 19.6719V17.0938C13.5566 16.9127 13.6328 16.74 13.7665 16.6178C13.9002 16.4957 14.0788 16.4355 14.2594 16.4518C16.1311 16.6217 17.925 16.9704 19.5912 17.4883C19.8608 17.5721 20.0444 17.8215 20.0444 18.1038V20.6819C20.0444 20.8868 19.947 21.0794 19.7821 21.2009C19.6701 21.2835 19.5358 21.3265 19.3999 21.3265Z" fill="#606A70"/>
</g>
<defs>
<clipPath id="clip0">
<rect width="22" height="22" fill="white" transform="translate(11 11)"/>
</clipPath>
</defs>
</svg>
